%!PS-Adobe-3.0 EPSF-3.0
%%Creator: MATLAB, The MathWorks, Inc. Version 7.12.0.635 (R2011a). Operating System: Linux 3.16.0-4-amd64 #1 SMP Debian 3.16.7-ckt20-1+deb8u3 (2016-01-17) x86_64.
%%Title: /home/jaemin/workspace_java/high_dim_bo/results/branin/avr_cumulative_regret.eps
%%CreationDate: 04/01/2016  22:18:49
%%DocumentNeededFonts: Helvetica
%%DocumentProcessColors: Cyan Magenta Yellow Black
%%LanguageLevel: 2
%%Pages: 1
%%BoundingBox:    52   199   546   592
%%EndComments

%%BeginProlog
% MathWorks dictionary
/MathWorks 160 dict begin
% definition operators
/bdef {bind def} bind def
/ldef {load def} bind def
/xdef {exch def} bdef
/xstore {exch store} bdef
% operator abbreviations
/c  /clip ldef
/cc /concat ldef
/cp /closepath ldef
/gr /grestore ldef
/gs /gsave ldef
/mt /moveto ldef
/np /newpath ldef
/cm /currentmatrix ldef
/sm /setmatrix ldef
/rm /rmoveto ldef
/rl /rlineto ldef
/s {show newpath} bdef
/sc {setcmykcolor} bdef
/sr /setrgbcolor ldef
/sg /setgray ldef
/w /setlinewidth ldef
/j /setlinejoin ldef
/cap /setlinecap ldef
/rc {rectclip} bdef
/rf {rectfill} bdef
% page state control
/pgsv () def
/bpage {/pgsv save def} bdef
/epage {pgsv restore} bdef
/bplot /gsave ldef
/eplot {stroke grestore} bdef
% orientation switch
/portraitMode 0 def /landscapeMode 1 def /rotateMode 2 def
% coordinate system mappings
/dpi2point 0 def
% font control
/FontSize 0 def
/FMS {/FontSize xstore findfont [FontSize 0 0 FontSize neg 0 0]
  makefont setfont} bdef
/reencode {exch dup where {pop load} {pop StandardEncoding} ifelse
  exch dup 3 1 roll findfont dup length dict begin
  { 1 index /FID ne {def}{pop pop} ifelse } forall
  /Encoding exch def currentdict end definefont pop} bdef
/isroman {findfont /CharStrings get /Agrave known} bdef
/FMSR {3 1 roll 1 index dup isroman {reencode} {pop pop} ifelse
  exch FMS} bdef
/csm {1 dpi2point div -1 dpi2point div scale neg translate
 dup landscapeMode eq {pop -90 rotate}
  {rotateMode eq {90 rotate} if} ifelse} bdef
% line types: solid, dotted, dashed, dotdash
/SO { [] 0 setdash } bdef
/DO { [.5 dpi2point mul 4 dpi2point mul] 0 setdash } bdef
/DA { [6 dpi2point mul] 0 setdash } bdef
/DD { [.5 dpi2point mul 4 dpi2point mul 6 dpi2point mul 4
  dpi2point mul] 0 setdash } bdef
% macros for lines and objects
/L {lineto stroke} bdef
/MP {3 1 roll moveto 1 sub {rlineto} repeat} bdef
/AP {{rlineto} repeat} bdef
/PDlw -1 def
/W {/PDlw currentlinewidth def setlinewidth} def
/PP {closepath eofill} bdef
/DP {closepath stroke} bdef
/MR {4 -2 roll moveto dup  0 exch rlineto exch 0 rlineto
  neg 0 exch rlineto closepath} bdef
/FR {MR stroke} bdef
/PR {MR fill} bdef
/L1i {{currentfile picstr readhexstring pop} image} bdef
/tMatrix matrix def
/MakeOval {newpath tMatrix currentmatrix pop translate scale
0 0 1 0 360 arc tMatrix setmatrix} bdef
/FO {MakeOval stroke} bdef
/PO {MakeOval fill} bdef
/PD {currentlinewidth 2 div 0 360 arc fill
   PDlw -1 eq not {PDlw w /PDlw -1 def} if} def
/FA {newpath tMatrix currentmatrix pop translate scale
  0 0 1 5 -2 roll arc tMatrix setmatrix stroke} bdef
/PA {newpath tMatrix currentmatrix pop	translate 0 0 moveto scale
  0 0 1 5 -2 roll arc closepath tMatrix setmatrix fill} bdef
/FAn {newpath tMatrix currentmatrix pop translate scale
  0 0 1 5 -2 roll arcn tMatrix setmatrix stroke} bdef
/PAn {newpath tMatrix currentmatrix pop translate 0 0 moveto scale
  0 0 1 5 -2 roll arcn closepath tMatrix setmatrix fill} bdef
/vradius 0 def /hradius 0 def /lry 0 def
/lrx 0 def /uly 0 def /ulx 0 def /rad 0 def
/MRR {/vradius xdef /hradius xdef /lry xdef /lrx xdef /uly xdef
  /ulx xdef newpath tMatrix currentmatrix pop ulx hradius add uly
  vradius add translate hradius vradius scale 0 0 1 180 270 arc 
  tMatrix setmatrix lrx hradius sub uly vradius add translate
  hradius vradius scale 0 0 1 270 360 arc tMatrix setmatrix
  lrx hradius sub lry vradius sub translate hradius vradius scale
  0 0 1 0 90 arc tMatrix setmatrix ulx hradius add lry vradius sub
  translate hradius vradius scale 0 0 1 90 180 arc tMatrix setmatrix
  closepath} bdef
/FRR {MRR stroke } bdef
/PRR {MRR fill } bdef
/MlrRR {/lry xdef /lrx xdef /uly xdef /ulx xdef /rad lry uly sub 2 div def
  newpath tMatrix currentmatrix pop ulx rad add uly rad add translate
  rad rad scale 0 0 1 90 270 arc tMatrix setmatrix lrx rad sub lry rad
  sub translate rad rad scale 0 0 1 270 90 arc tMatrix setmatrix
  closepath} bdef
/FlrRR {MlrRR stroke } bdef
/PlrRR {MlrRR fill } bdef
/MtbRR {/lry xdef /lrx xdef /uly xdef /ulx xdef /rad lrx ulx sub 2 div def
  newpath tMatrix currentmatrix pop ulx rad add uly rad add translate
  rad rad scale 0 0 1 180 360 arc tMatrix setmatrix lrx rad sub lry rad
  sub translate rad rad scale 0 0 1 0 180 arc tMatrix setmatrix
  closepath} bdef
/FtbRR {MtbRR stroke } bdef
/PtbRR {MtbRR fill } bdef
/stri 6 array def /dtri 6 array def
/smat 6 array def /dmat 6 array def
/tmat1 6 array def /tmat2 6 array def /dif 3 array def
/asub {/ind2 exch def /ind1 exch def dup dup
  ind1 get exch ind2 get sub exch } bdef
/tri_to_matrix {
  2 0 asub 3 1 asub 4 0 asub 5 1 asub
  dup 0 get exch 1 get 7 -1 roll astore } bdef
/compute_transform {
  dmat dtri tri_to_matrix tmat1 invertmatrix 
  smat stri tri_to_matrix tmat2 concatmatrix } bdef
/ds {stri astore pop} bdef
/dt {dtri astore pop} bdef
/db {2 copy /cols xdef /rows xdef mul dup 3 mul string
  currentfile 
  3 index 0 eq {/ASCIIHexDecode filter}
  {/ASCII85Decode filter 3 index 2 eq {/RunLengthDecode filter} if }
  ifelse exch readstring pop
  dup 0 3 index getinterval /rbmap xdef
  dup 2 index dup getinterval /gbmap xdef
  1 index dup 2 mul exch getinterval /bbmap xdef pop pop}bdef
/it {gs np dtri aload pop moveto lineto lineto cp c
  cols rows 8 compute_transform 
  rbmap gbmap bbmap true 3 colorimage gr}bdef
/il {newpath moveto lineto stroke}bdef
currentdict end def
%%EndProlog

%%BeginSetup
MathWorks begin

0 cap

end
%%EndSetup

%%Page: 1 1
%%BeginPageSetup
%%PageBoundingBox:    52   199   546   592
MathWorks begin
bpage
%%EndPageSetup

%%BeginObject: obj1
bplot

/dpi2point 12 def
portraitMode 0216 7344 csm

  415   237  5930  4718 rc
88 dict begin %Colortable dictionary
/c0 { 0.000000 0.000000 0.000000 sr} bdef
/c1 { 1.000000 1.000000 1.000000 sr} bdef
/c2 { 0.900000 0.000000 0.000000 sr} bdef
/c3 { 0.000000 0.820000 0.000000 sr} bdef
/c4 { 0.000000 0.000000 0.800000 sr} bdef
/c5 { 0.910000 0.820000 0.320000 sr} bdef
/c6 { 1.000000 0.260000 0.820000 sr} bdef
/c7 { 0.000000 0.820000 0.820000 sr} bdef
c0
1 j
1 sg
   0    0 6913 5186 rf
6 w
0 4226 5356 0 0 -4226 899 4615 4 MP
PP
-5356 0 0 4226 5356 0 0 -4226 899 4615 5 MP stroke
4 w
DO
SO
6 w
0 sg
 899 4615 mt 6255 4615 L
 899  389 mt 6255  389 L
 899 4615 mt  899  389 L
6255 4615 mt 6255  389 L
 899 4615 mt 6255 4615 L
 899 4615 mt  899  389 L
 899 4615 mt  899 4561 L
 899  389 mt  899  442 L
%%IncludeResource: font Helvetica
/Helvetica /ISOLatin1Encoding 120 FMSR

 866 4760 mt 
(0) s
1664 4615 mt 1664 4561 L
1664  389 mt 1664  442 L
1598 4760 mt 
(50) s
2429 4615 mt 2429 4561 L
2429  389 mt 2429  442 L
2329 4760 mt 
(100) s
3194 4615 mt 3194 4561 L
3194  389 mt 3194  442 L
3094 4760 mt 
(150) s
3959 4615 mt 3959 4561 L
3959  389 mt 3959  442 L
3859 4760 mt 
(200) s
4724 4615 mt 4724 4561 L
4724  389 mt 4724  442 L
4624 4760 mt 
(250) s
5489 4615 mt 5489 4561 L
5489  389 mt 5489  442 L
5389 4760 mt 
(300) s
 899 4615 mt  925 4615 L
6255 4615 mt 6228 4615 L
 899 4615 mt  952 4615 L
6255 4615 mt 6201 4615 L
 687 4659 mt 
(10) s
%%IncludeResource: font Helvetica
/Helvetica /ISOLatin1Encoding 80 FMSR

 820 4585 mt 
(0) s
 899 4190 mt  925 4190 L
6255 4190 mt 6228 4190 L
 899 3942 mt  925 3942 L
6255 3942 mt 6228 3942 L
 899 3766 mt  925 3766 L
6255 3766 mt 6228 3766 L
 899 3630 mt  925 3630 L
6255 3630 mt 6228 3630 L
 899 3518 mt  925 3518 L
6255 3518 mt 6228 3518 L
 899 3424 mt  925 3424 L
6255 3424 mt 6228 3424 L
 899 3342 mt  925 3342 L
6255 3342 mt 6228 3342 L
 899 3270 mt  925 3270 L
6255 3270 mt 6228 3270 L
 899 3206 mt  925 3206 L
6255 3206 mt 6228 3206 L
 899 3206 mt  952 3206 L
6255 3206 mt 6201 3206 L
%%IncludeResource: font Helvetica
/Helvetica /ISOLatin1Encoding 120 FMSR

 687 3250 mt 
(10) s
%%IncludeResource: font Helvetica
/Helvetica /ISOLatin1Encoding 80 FMSR

 820 3176 mt 
(1) s
 899 2782 mt  925 2782 L
6255 2782 mt 6228 2782 L
 899 2534 mt  925 2534 L
6255 2534 mt 6228 2534 L
 899 2358 mt  925 2358 L
6255 2358 mt 6228 2358 L
 899 2221 mt  925 2221 L
6255 2221 mt 6228 2221 L
 899 2110 mt  925 2110 L
6255 2110 mt 6228 2110 L
 899 2015 mt  925 2015 L
6255 2015 mt 6228 2015 L
 899 1934 mt  925 1934 L
6255 1934 mt 6228 1934 L
 899 1862 mt  925 1862 L
6255 1862 mt 6228 1862 L
 899 1797 mt  925 1797 L
6255 1797 mt 6228 1797 L
 899 1797 mt  952 1797 L
6255 1797 mt 6201 1797 L
%%IncludeResource: font Helvetica
/Helvetica /ISOLatin1Encoding 120 FMSR

 687 1841 mt 
(10) s
%%IncludeResource: font Helvetica
/Helvetica /ISOLatin1Encoding 80 FMSR

 820 1767 mt 
(2) s
 899 1373 mt  925 1373 L
6255 1373 mt 6228 1373 L
 899 1125 mt  925 1125 L
6255 1125 mt 6228 1125 L
 899  949 mt  925  949 L
6255  949 mt 6228  949 L
 899  813 mt  925  813 L
6255  813 mt 6228  813 L
 899  701 mt  925  701 L
6255  701 mt 6228  701 L
 899  607 mt  925  607 L
6255  607 mt 6228  607 L
 899  525 mt  925  525 L
6255  525 mt 6228  525 L
 899  453 mt  925  453 L
6255  453 mt 6228  453 L
 899  389 mt  925  389 L
6255  389 mt 6228  389 L
 899  389 mt  952  389 L
6255  389 mt 6201  389 L
%%IncludeResource: font Helvetica
/Helvetica /ISOLatin1Encoding 120 FMSR

 687  433 mt 
(10) s
%%IncludeResource: font Helvetica
/Helvetica /ISOLatin1Encoding 80 FMSR

 820  359 mt 
(3) s
 899 4615 mt 6255 4615 L
 899  389 mt 6255  389 L
 899 4615 mt  899  389 L
6255 4615 mt 6255  389 L
gs 899 389 5357 4227 rc
gs 1116 2627 4432 396 rc
0 j
41 71 -82 0 41 -71 1189 2996 4 MP
/c8 { 0.000000 1.000000 0.000000 sr} bdef
c8
DP
41 71 -82 0 41 -71 1495 2996 4 MP
DP
41 71 -82 0 41 -71 1801 2936 4 MP
DP
41 71 -82 0 41 -71 2107 2855 4 MP
DP
41 71 -82 0 41 -71 2413 2823 4 MP
DP
41 71 -82 0 41 -71 2720 2804 4 MP
DP
41 71 -82 0 41 -71 3026 2785 4 MP
DP
41 71 -82 0 41 -71 3332 2772 4 MP
DP
41 71 -82 0 41 -71 3638 2768 4 MP
DP
41 71 -82 0 41 -71 3944 2762 4 MP
DP
41 71 -82 0 41 -71 4250 2756 4 MP
DP
41 71 -82 0 41 -71 4556 2754 4 MP
DP
41 71 -82 0 41 -71 4862 2750 4 MP
DP
41 71 -82 0 41 -71 5168 2747 4 MP
DP
41 71 -82 0 41 -71 5474 2747 4 MP
DP
gr

c8
gs 1116 2583 4432 698 rc
0 j
0 -58 -58 0 0 58 58 0 1160 2627 5 MP
/c9 { 1.000000 0.000000 0.000000 sr} bdef
c9
DP
0 -58 -58 0 0 58 58 0 1466 2810 5 MP
DP
0 -58 -58 0 0 58 58 0 1772 2799 5 MP
DP
0 -58 -58 0 0 58 58 0 2078 2884 5 MP
DP
0 -58 -58 0 0 58 58 0 2384 2947 5 MP
DP
0 -58 -58 0 0 58 58 0 2691 2975 5 MP
DP
0 -58 -58 0 0 58 58 0 2997 3011 5 MP
DP
0 -58 -58 0 0 58 58 0 3303 3051 5 MP
DP
0 -58 -58 0 0 58 58 0 3609 3063 5 MP
DP
0 -58 -58 0 0 58 58 0 3915 3088 5 MP
DP
0 -58 -58 0 0 58 58 0 4221 3108 5 MP
DP
0 -58 -58 0 0 58 58 0 4527 3126 5 MP
DP
0 -58 -58 0 0 58 58 0 4833 3150 5 MP
DP
0 -58 -58 0 0 58 58 0 5139 3159 5 MP
DP
0 -58 -58 0 0 58 58 0 5445 3178 5 MP
DP
gr

c9
gs 1116 1688 4432 1347 rc
/c10 { 0.000000 1.000000 1.000000 sr} bdef
c10
  36   36 1189 1761 FO
  36   36 1495 2189 FO
  36   36 1801 2221 FO
  36   36 2107 2319 FO
  36   36 2413 2410 FO
  36   36 2720 2444 FO
  36   36 3026 2529 FO
  36   36 3332 2587 FO
  36   36 3638 2657 FO
  36   36 3944 2720 FO
  36   36 4250 2778 FO
  36   36 4556 2830 FO
  36   36 4862 2878 FO
  36   36 5168 2920 FO
  36   36 5474 2961 FO
gr

c10
gs 1116 2055 4432 238 rc
/c11 { 0.000000 0.000000 1.000000 sr} bdef
c11
1153 2162 mt 1225 2162 L
1189 2126 mt 1189 2198 L
1459 2128 mt 1531 2128 L
1495 2092 mt 1495 2164 L
1765 2129 mt 1837 2129 L
1801 2093 mt 1801 2165 L
2071 2140 mt 2143 2140 L
2107 2104 mt 2107 2176 L
2377 2145 mt 2449 2145 L
2413 2109 mt 2413 2181 L
2684 2143 mt 2756 2143 L
2720 2107 mt 2720 2179 L
2990 2155 mt 3062 2155 L
3026 2119 mt 3026 2191 L
3296 2171 mt 3368 2171 L
3332 2135 mt 3332 2207 L
3602 2183 mt 3674 2183 L
3638 2147 mt 3638 2219 L
3908 2189 mt 3980 2189 L
3944 2153 mt 3944 2225 L
4214 2195 mt 4286 2195 L
4250 2159 mt 4250 2231 L
4520 2202 mt 4592 2202 L
4556 2166 mt 4556 2238 L
4826 2212 mt 4898 2212 L
4862 2176 mt 4862 2248 L
5132 2215 mt 5204 2215 L
5168 2179 mt 5168 2251 L
5438 2219 mt 5510 2219 L
5474 2183 mt 5474 2255 L
1164 2137 mt 1214 2187 L
1214 2137 mt 1164 2187 L
1470 2103 mt 1520 2153 L
1520 2103 mt 1470 2153 L
1776 2104 mt 1826 2154 L
1826 2104 mt 1776 2154 L
2082 2115 mt 2132 2165 L
2132 2115 mt 2082 2165 L
2388 2120 mt 2438 2170 L
2438 2120 mt 2388 2170 L
2695 2118 mt 2745 2168 L
2745 2118 mt 2695 2168 L
3001 2130 mt 3051 2180 L
3051 2130 mt 3001 2180 L
3307 2146 mt 3357 2196 L
3357 2146 mt 3307 2196 L
3613 2158 mt 3663 2208 L
3663 2158 mt 3613 2208 L
3919 2164 mt 3969 2214 L
3969 2164 mt 3919 2214 L
4225 2170 mt 4275 2220 L
4275 2170 mt 4225 2220 L
4531 2177 mt 4581 2227 L
4581 2177 mt 4531 2227 L
4837 2187 mt 4887 2237 L
4887 2187 mt 4837 2237 L
5143 2190 mt 5193 2240 L
5193 2190 mt 5143 2240 L
5449 2194 mt 5499 2244 L
5499 2194 mt 5449 2244 L
gr

c11
gs 1116 2225 4432 273 rc
0 j
36 47 -36 47 -36 -47 36 -47 1189 2392 5 MP
/c12 { 1.000000 0.000000 1.000000 sr} bdef
c12
DP
36 47 -36 47 -36 -47 36 -47 1495 2345 5 MP
DP
36 47 -36 47 -36 -47 36 -47 1801 2372 5 MP
DP
36 47 -36 47 -36 -47 36 -47 2107 2382 5 MP
DP
36 47 -36 47 -36 -47 36 -47 2413 2382 5 MP
DP
36 47 -36 47 -36 -47 36 -47 2720 2395 5 MP
DP
36 47 -36 47 -36 -47 36 -47 3026 2417 5 MP
DP
36 47 -36 47 -36 -47 36 -47 3332 2427 5 MP
DP
36 47 -36 47 -36 -47 36 -47 3638 2442 5 MP
DP
36 47 -36 47 -36 -47 36 -47 3944 2434 5 MP
DP
36 47 -36 47 -36 -47 36 -47 4250 2445 5 MP
DP
36 47 -36 47 -36 -47 36 -47 4556 2456 5 MP
DP
36 47 -36 47 -36 -47 36 -47 4862 2458 5 MP
DP
36 47 -36 47 -36 -47 36 -47 5168 2463 5 MP
DP
36 47 -36 47 -36 -47 36 -47 5474 2471 5 MP
DP
gr

c12
gr

c12
0 sg
%%IncludeResource: font Helvetica
/Helvetica /ISOLatin1Encoding 120 FMSR

3330 4903 mt 
(Iterations) s
 551 2628 mt  -90 rotate
(R) s
90 rotate
%%IncludeResource: font Helvetica
/Helvetica /ISOLatin1Encoding 96 FMSR

 611 2542 mt  -90 rotate
(T) s
90 rotate
%%IncludeResource: font Helvetica
/Helvetica /ISOLatin1Encoding 120 FMSR

 551 2484 mt  -90 rotate
(/T) s
90 rotate
 882 4658 mt 
( ) s
6239  431 mt 
( ) s
gs 899 389 5357 4227 rc
c8
15 0 16 0 15 0 15 -1 15 0 16 0 15 0 15 0 
16 0 15 0 15 0 16 0 15 1 15 0 15 0 16 0 
15 0 15 0 16 0 15 0 15 0 16 0 15 0 15 0 
16 0 15 0 15 -1 15 0 16 0 15 0 15 -1 16 0 
15 0 15 0 16 0 15 0 15 -1 15 0 16 0 15 0 
15 0 16 0 15 0 15 0 16 -1 15 0 15 0 15 0 
16 -1 15 0 15 0 16 -1 15 0 15 0 16 -1 15 0 
15 0 16 0 15 0 15 0 15 -1 16 0 15 0 15 0 
16 -1 15 0 15 -1 16 0 15 0 15 0 15 0 16 0 
15 0 15 0 16 0 15 0 15 0 16 0 15 0 15 1 
15 0 16 -1 15 0 15 0 16 0 15 -1 15 0 16 0 
15 0 15 -1 16 0 15 -1 15 0 15 -1 16 0 15 -1 
15 0 16 0 15 0 15 0 16 0 15 0 15 -1 15 0 
16 0 15 0 15 -1 16 -1 15 0 15 -1 16 0 15 0 
15 0 15 0 16 -1 15 0 15 -1 16 0 15 0 15 0 
16 -1 15 0 15 0 15 0 16 0 15 -1 15 -1 16 0 
15 0 15 0 16 0 15 0 15 -1 16 0 15 1 15 -1 
15 0 16 0 15 0 15 0 16 0 15 -1 15 0 16 -1 
15 0 15 0 15 -1 16 0 15 0 15 -1 16 -1 15 0 
15 -2 16 0 15 -1 15 -1 15 -1 16 0 15 -1 15 -2 
16 0 15 -1 15 0 16 -1 15 -1 15 -1 16 -1 15 -1 
15 -1 15 -1 16 -1 15 -1 15 -1 16 -1 15 0 15 -1 
16 -1 15 -2 15 -1 15 -2 16 0 15 -2 15 -2 16 -1 
15 -1 15 -2 16 -1 15 0 15 0 15 0 16 0 15 -1 
15 0 16 -1 15 -1 15 -2 16 -1 15 -1 15 -2 16 -1 
15 -2 15 -3 15 -3 16 -1 15 -3 15 -1 16 -2 15 0 
15 -2 16 -2 15 -1 15 -1 15 -2 16 -2 15 -1 15 -1 
16 -2 15 -1 15 -1 16 -1 15 -3 15 -4 15 -5 16 -4 
15 -3 15 -3 16 -2 15 -3 15 -3 16 -4 15 -4 15 -3 
16 -4 15 -3 15 -5 15 -5 16 -6 15 -6 15 -6 16 -5 
15 -6 15 -4 16 -8 15 -9 15 -5 15 -7 16 -6 15 -9 
15 -7 16 0 15 0 15 0 16 0 15 0 15 0 15 0 
16 0 15 1 15 0 16 0 15 0 15 0 16 0 15 0 
15 0 16 0 15 0 15 0 15 0 16 0 15 0 15 0 
16 0 15 0 15 0 16 0 15 0 15 0 15 0 16 0 
15 0 15 0 16 0 15 0 15 0 16 0 15 0 15 0 
15 0 16 1 15 0 15 0 16 1 15 0 15 -4 16 3 
15 4 15 -11 15 0 899 2955 300 MP stroke
0 113 1189 2895 2 MP stroke
86 0 1146 2895 2 MP stroke
86 0 1146 3008 2 MP stroke
0 112 1495 2896 2 MP stroke
86 0 1452 2896 2 MP stroke
86 0 1452 3008 2 MP stroke
0 84 1801 2849 2 MP stroke
85 0 1759 2849 2 MP stroke
85 0 1759 2933 2 MP stroke
0 51 2107 2783 2 MP stroke
85 0 2065 2783 2 MP stroke
85 0 2065 2834 2 MP stroke
0 41 2413 2756 2 MP stroke
85 0 2371 2756 2 MP stroke
85 0 2371 2797 2 MP stroke
0 40 2720 2737 2 MP stroke
85 0 2677 2737 2 MP stroke
85 0 2677 2777 2 MP stroke
0 36 3026 2720 2 MP stroke
85 0 2983 2720 2 MP stroke
85 0 2983 2756 2 MP stroke
0 35 3332 2708 2 MP stroke
86 0 3289 2708 2 MP stroke
86 0 3289 2743 2 MP stroke
0 35 3638 2704 2 MP stroke
86 0 3595 2704 2 MP stroke
86 0 3595 2739 2 MP stroke
0 35 3944 2698 2 MP stroke
86 0 3901 2698 2 MP stroke
86 0 3901 2733 2 MP stroke
0 36 4250 2692 2 MP stroke
86 0 4207 2692 2 MP stroke
86 0 4207 2728 2 MP stroke
0 35 4556 2690 2 MP stroke
86 0 4513 2690 2 MP stroke
86 0 4513 2725 2 MP stroke
0 33 4862 2687 2 MP stroke
86 0 4819 2687 2 MP stroke
86 0 4819 2720 2 MP stroke
0 33 5168 2684 2 MP stroke
86 0 5125 2684 2 MP stroke
86 0 5125 2717 2 MP stroke
0 33 5474 2684 2 MP stroke
86 0 5431 2684 2 MP stroke
86 0 5431 2717 2 MP stroke
gs 1116 2627 4432 396 rc
0 j
41 71 -82 0 41 -71 1189 2996 4 MP
DP
41 71 -82 0 41 -71 1495 2996 4 MP
DP
41 71 -82 0 41 -71 1801 2936 4 MP
DP
41 71 -82 0 41 -71 2107 2855 4 MP
DP
41 71 -82 0 41 -71 2413 2823 4 MP
DP
41 71 -82 0 41 -71 2720 2804 4 MP
DP
41 71 -82 0 41 -71 3026 2785 4 MP
DP
41 71 -82 0 41 -71 3332 2772 4 MP
DP
41 71 -82 0 41 -71 3638 2768 4 MP
DP
41 71 -82 0 41 -71 3944 2762 4 MP
DP
41 71 -82 0 41 -71 4250 2756 4 MP
DP
41 71 -82 0 41 -71 4556 2754 4 MP
DP
41 71 -82 0 41 -71 4862 2750 4 MP
DP
41 71 -82 0 41 -71 5168 2747 4 MP
DP
41 71 -82 0 41 -71 5474 2747 4 MP
DP
gr

c9
15 1 16 1 15 -2 15 1 15 2 16 1 15 1 15 1 
16 2 15 1 15 1 16 0 15 1 15 1 15 2 16 1 
15 1 15 1 16 2 15 0 15 2 16 0 15 0 15 1 
16 0 15 1 15 -2 15 1 16 1 15 1 15 1 16 2 
15 1 15 2 16 1 15 1 15 -1 15 -6 16 1 15 2 
15 0 16 1 15 0 15 1 16 2 15 1 15 2 15 1 
16 2 15 1 15 2 16 1 15 2 15 1 16 1 15 1 
15 2 16 1 15 1 15 1 15 2 16 1 15 1 15 2 
16 1 15 1 15 2 16 -5 15 0 15 0 15 1 16 2 
15 2 15 2 16 1 15 2 15 1 16 0 15 1 15 1 
15 0 16 1 15 1 15 2 16 0 15 2 15 2 16 1 
15 1 15 2 16 2 15 0 15 1 15 1 16 1 15 -1 
15 1 16 1 15 0 15 2 16 2 15 2 15 2 15 2 
16 2 15 2 15 2 16 2 15 2 15 2 16 1 15 0 
15 2 15 2 16 -2 15 0 15 2 16 -1 15 1 15 0 
16 3 15 1 15 1 15 1 16 0 15 1 15 0 16 2 
15 0 15 2 16 0 15 2 15 2 16 2 15 -2 15 1 
15 -2 16 -7 15 3 15 2 16 1 15 2 15 2 16 2 
15 3 15 1 15 3 16 2 15 2 15 2 16 3 15 2 
15 2 16 0 15 2 15 2 15 3 16 3 15 1 15 2 
16 1 15 2 15 2 16 2 15 3 15 3 16 2 15 -1 
15 1 15 3 16 2 15 0 15 2 16 3 15 0 15 1 
16 4 15 3 15 2 15 1 16 2 15 2 15 3 16 2 
15 1 15 3 16 2 15 -8 15 3 15 2 16 2 15 3 
15 3 16 4 15 4 15 -8 16 3 15 3 15 1 16 1 
15 3 15 3 15 4 16 -2 15 1 15 4 16 4 15 4 
15 3 16 -1 15 0 15 5 15 2 16 4 15 4 15 4 
16 5 15 6 15 5 16 5 15 5 15 5 15 4 16 4 
15 5 15 4 16 -1 15 5 15 5 16 5 15 6 15 6 
16 6 15 -5 15 5 15 8 16 7 15 6 15 -3 16 8 
15 8 15 -16 16 7 15 2 15 4 15 7 16 9 15 -9 
15 -4 16 9 15 7 15 10 16 6 15 10 15 10 15 10 
16 -100 15 9 15 11 16 -1 15 10 15 11 16 6 15 11 
15 7 16 8 15 13 15 9 15 14 16 5 15 13 15 3 
16 17 15 12 15 9 16 11 15 18 15 2 15 -5 16 9 
15 -37 15 12 16 24 15 21 15 -9 16 -2 15 38 15 34 
15 38 16 46 15 29 15 -28 16 44 15 49 15 76 16 94 
15 139 15 258 15 0 899 1830 300 MP stroke
0 450 1189 2471 2 MP stroke
86 0 1146 2471 2 MP stroke
86 0 1146 2921 2 MP stroke
0 413 1495 2667 2 MP stroke
86 0 1452 2667 2 MP stroke
86 0 1452 3080 2 MP stroke
0 370 1801 2671 2 MP stroke
85 0 1759 2671 2 MP stroke
85 0 1759 3041 2 MP stroke
0 333 2107 2769 2 MP stroke
85 0 2065 2769 2 MP stroke
85 0 2065 3102 2 MP stroke
0 323 2413 2835 2 MP stroke
85 0 2371 2835 2 MP stroke
85 0 2371 3158 2 MP stroke
0 311 2720 2868 2 MP stroke
85 0 2677 2868 2 MP stroke
85 0 2677 3179 2 MP stroke
0 316 3026 2902 2 MP stroke
85 0 2983 2902 2 MP stroke
85 0 2983 3218 2 MP stroke
0 322 3332 2940 2 MP stroke
86 0 3289 2940 2 MP stroke
86 0 3289 3262 2 MP stroke
0 340 3638 2945 2 MP stroke
86 0 3595 2945 2 MP stroke
86 0 3595 3285 2 MP stroke
0 349 3944 2967 2 MP stroke
86 0 3901 2967 2 MP stroke
86 0 3901 3316 2 MP stroke
0 357 4250 2984 2 MP stroke
86 0 4207 2984 2 MP stroke
86 0 4207 3341 2 MP stroke
0 367 4556 2998 2 MP stroke
86 0 4513 2998 2 MP stroke
86 0 4513 3365 2 MP stroke
0 371 4862 3022 2 MP stroke
86 0 4819 3022 2 MP stroke
86 0 4819 3393 2 MP stroke
0 382 5168 3026 2 MP stroke
86 0 5125 3026 2 MP stroke
86 0 5125 3408 2 MP stroke
0 381 5474 3046 2 MP stroke
86 0 5431 3046 2 MP stroke
86 0 5431 3427 2 MP stroke
gs 1116 2583 4432 698 rc
0 j
0 -58 -58 0 0 58 58 0 1160 2627 5 MP
DP
0 -58 -58 0 0 58 58 0 1466 2810 5 MP
DP
0 -58 -58 0 0 58 58 0 1772 2799 5 MP
DP
0 -58 -58 0 0 58 58 0 2078 2884 5 MP
DP
0 -58 -58 0 0 58 58 0 2384 2947 5 MP
DP
0 -58 -58 0 0 58 58 0 2691 2975 5 MP
DP
0 -58 -58 0 0 58 58 0 2997 3011 5 MP
DP
0 -58 -58 0 0 58 58 0 3303 3051 5 MP
DP
0 -58 -58 0 0 58 58 0 3609 3063 5 MP
DP
0 -58 -58 0 0 58 58 0 3915 3088 5 MP
DP
0 -58 -58 0 0 58 58 0 4221 3108 5 MP
DP
0 -58 -58 0 0 58 58 0 4527 3126 5 MP
DP
0 -58 -58 0 0 58 58 0 4833 3150 5 MP
DP
0 -58 -58 0 0 58 58 0 5139 3159 5 MP
DP
0 -58 -58 0 0 58 58 0 5445 3178 5 MP
DP
gr

c10
15 2 16 2 15 2 15 2 15 2 16 2 15 2 15 2 
16 2 15 2 15 2 16 2 15 2 15 2 15 2 16 2 
15 2 15 3 16 2 15 2 15 2 16 2 15 2 15 2 
16 2 15 2 15 3 15 2 16 2 15 2 15 2 16 3 
15 2 15 0 16 3 15 2 15 2 15 3 16 2 15 2 
15 2 16 3 15 2 15 2 16 3 15 2 15 3 15 2 
16 2 15 3 15 2 16 3 15 2 15 2 16 3 15 2 
15 3 16 2 15 3 15 2 15 3 16 2 15 3 15 2 
16 3 15 2 15 3 16 3 15 2 15 3 15 2 16 3 
15 3 15 2 16 3 15 3 15 2 16 3 15 3 15 2 
15 3 16 3 15 3 15 2 16 3 15 3 15 3 16 3 
15 3 15 2 16 3 15 3 15 3 15 3 16 3 15 3 
15 3 16 3 15 3 15 3 16 2 15 3 15 3 15 4 
16 3 15 3 15 3 16 3 15 3 15 3 16 4 15 3 
15 3 15 3 16 3 15 4 15 3 16 3 15 3 15 4 
16 3 15 3 15 4 15 3 16 4 15 3 15 4 16 3 
15 4 15 3 16 4 15 3 15 4 16 4 15 3 15 3 
15 4 16 4 15 3 15 4 16 4 15 3 15 4 16 3 
15 -6 15 3 15 3 16 2 15 2 15 3 16 -1 15 4 
15 4 16 4 15 4 15 5 15 4 16 4 15 4 15 5 
16 4 15 4 15 4 16 4 15 4 15 5 16 4 15 5 
15 4 15 5 16 4 15 5 15 5 16 2 15 5 15 5 
16 3 15 4 15 5 15 4 16 4 15 3 15 2 16 2 
15 4 15 4 16 4 15 3 15 4 15 2 16 4 15 2 
15 3 16 2 15 4 15 1 16 1 15 -1 15 -3 16 -11 
15 -22 15 6 15 2 16 5 15 6 15 7 16 6 15 6 
15 7 16 5 15 6 15 7 15 6 16 7 15 6 15 6 
16 6 15 6 15 6 16 7 15 3 15 7 15 7 16 2 
15 6 15 7 16 6 15 7 15 6 16 4 15 5 15 7 
16 7 15 6 15 7 15 5 16 3 15 3 15 0 16 0 
15 1 15 -6 16 -2 15 0 15 -5 15 -4 16 -4 15 -13 
15 -10 16 -25 15 -20 15 12 16 13 15 13 15 13 15 13 
16 14 15 13 15 14 16 15 15 16 15 16 16 16 15 17 
15 17 16 18 15 17 15 19 15 20 16 20 15 21 15 21 
16 22 15 24 15 24 16 26 15 26 15 28 15 29 16 31 
15 32 15 35 16 34 15 39 15 34 16 44 15 47 15 50 
15 47 16 59 15 57 15 72 16 84 15 103 15 101 16 82 
15 72 15 123 15 0 899 646 300 MP stroke
0 43 1189 1740 2 MP stroke
86 0 1146 1740 2 MP stroke
86 0 1146 1783 2 MP stroke
0 42 1495 2168 2 MP stroke
86 0 1452 2168 2 MP stroke
86 0 1452 2210 2 MP stroke
0 43 1801 2200 2 MP stroke
85 0 1759 2200 2 MP stroke
85 0 1759 2243 2 MP stroke
0 70 2107 2285 2 MP stroke
85 0 2065 2285 2 MP stroke
85 0 2065 2355 2 MP stroke
0 79 2413 2372 2 MP stroke
85 0 2371 2372 2 MP stroke
85 0 2371 2451 2 MP stroke
0 65 2720 2412 2 MP stroke
85 0 2677 2412 2 MP stroke
85 0 2677 2477 2 MP stroke
0 64 3026 2498 2 MP stroke
85 0 2983 2498 2 MP stroke
85 0 2983 2562 2 MP stroke
0 59 3332 2558 2 MP stroke
86 0 3289 2558 2 MP stroke
86 0 3289 2617 2 MP stroke
0 59 3638 2628 2 MP stroke
86 0 3595 2628 2 MP stroke
86 0 3595 2687 2 MP stroke
0 59 3944 2692 2 MP stroke
86 0 3901 2692 2 MP stroke
86 0 3901 2751 2 MP stroke
0 59 4250 2749 2 MP stroke
86 0 4207 2749 2 MP stroke
86 0 4207 2808 2 MP stroke
0 59 4556 2801 2 MP stroke
86 0 4513 2801 2 MP stroke
86 0 4513 2860 2 MP stroke
0 59 4862 2849 2 MP stroke
86 0 4819 2849 2 MP stroke
86 0 4819 2908 2 MP stroke
0 58 5168 2892 2 MP stroke
86 0 5125 2892 2 MP stroke
86 0 5125 2950 2 MP stroke
0 58 5474 2933 2 MP stroke
86 0 5431 2933 2 MP stroke
86 0 5431 2991 2 MP stroke
gs 1116 1688 4432 1347 rc
  36   36 1189 1761 FO
  36   36 1495 2189 FO
  36   36 1801 2221 FO
  36   36 2107 2319 FO
  36   36 2413 2410 FO
  36   36 2720 2444 FO
  36   36 3026 2529 FO
  36   36 3332 2587 FO
  36   36 3638 2657 FO
  36   36 3944 2720 FO
  36   36 4250 2778 FO
  36   36 4556 2830 FO
  36   36 4862 2878 FO
  36   36 5168 2920 FO
  36   36 5474 2961 FO
gr

c11
15 0 16 -1 15 1 15 -1 15 1 16 0 15 1 15 0 
16 1 15 -3 15 1 16 0 15 1 15 0 15 1 16 1 
15 0 15 0 16 1 15 0 15 0 16 -1 15 0 15 -1 
16 0 15 -1 15 1 15 1 16 0 15 1 15 0 16 1 
15 1 15 0 16 -1 15 1 15 0 15 1 16 0 15 0 
15 1 16 0 15 0 15 1 16 -1 15 2 15 0 15 1 
16 0 15 -1 15 1 16 0 15 1 15 0 16 1 15 0 
15 1 16 1 15 1 15 1 15 0 16 1 15 0 15 1 
16 0 15 0 15 -2 16 1 15 1 15 0 15 1 16 -1 
15 0 15 1 16 0 15 2 15 1 16 0 15 1 15 0 
15 1 16 -1 15 0 15 0 16 1 15 1 15 0 16 0 
15 1 15 1 16 1 15 0 15 -1 15 0 16 0 15 1 
15 0 16 1 15 -1 15 1 16 1 15 0 15 -1 15 1 
16 0 15 1 15 1 16 0 15 -1 15 1 16 0 15 2 
15 0 15 -2 16 1 15 0 15 0 16 1 15 0 15 1 
16 -1 15 1 15 0 15 1 16 0 15 2 15 1 16 1 
15 1 15 1 16 0 15 0 15 -1 16 -1 15 1 15 0 
15 2 16 1 15 1 15 2 16 0 15 2 15 2 16 1 
15 1 15 0 15 1 16 2 15 1 15 -1 16 1 15 2 
15 0 16 0 15 1 15 1 15 0 16 -1 15 2 15 1 
16 1 15 2 15 1 16 1 15 -1 15 1 16 0 15 0 
15 0 15 1 16 1 15 -2 15 2 16 0 15 1 15 1 
16 2 15 1 15 2 15 -2 16 0 15 1 15 0 16 2 
15 1 15 0 16 1 15 0 15 0 15 -1 16 -1 15 0 
15 -4 16 1 15 -3 15 2 16 3 15 1 15 1 16 -6 
15 1 15 3 15 1 16 1 15 -1 15 2 16 -4 15 -1 
15 3 16 0 15 1 15 2 15 0 16 0 15 -4 15 3 
16 -1 15 -1 15 -1 16 1 15 2 15 2 15 3 16 0 
15 0 15 1 16 4 15 4 15 0 16 3 15 -7 15 -1 
16 1 15 -2 15 -2 15 -4 16 -1 15 3 15 1 16 4 
15 -4 15 -1 16 4 15 -11 15 2 15 5 16 -4 15 3 
15 4 16 -2 15 2 15 3 16 -2 15 3 15 5 15 0 
16 -15 15 5 15 -2 16 6 15 2 15 6 16 4 15 7 
15 -2 16 7 15 2 15 6 15 1 16 1 15 3 15 -22 
16 -8 15 13 15 -13 16 -9 15 3 15 -29 15 0 16 -6 
15 -12 15 6 16 9 15 1 15 9 16 4 15 -18 15 10 
15 -11 16 14 15 26 15 6 16 -7 15 26 15 32 16 91 
15 -18 15 -83 15 0 899 2077 300 MP stroke
0 92 1189 2118 2 MP stroke
86 0 1146 2118 2 MP stroke
86 0 1146 2210 2 MP stroke
0 71 1495 2094 2 MP stroke
86 0 1452 2094 2 MP stroke
86 0 1452 2165 2 MP stroke
0 61 1801 2099 2 MP stroke
85 0 1759 2099 2 MP stroke
85 0 1759 2160 2 MP stroke
0 57 2107 2112 2 MP stroke
85 0 2065 2112 2 MP stroke
85 0 2065 2169 2 MP stroke
0 44 2413 2123 2 MP stroke
85 0 2371 2123 2 MP stroke
85 0 2371 2167 2 MP stroke
0 41 2720 2123 2 MP stroke
85 0 2677 2123 2 MP stroke
85 0 2677 2164 2 MP stroke
0 38 3026 2136 2 MP stroke
85 0 2983 2136 2 MP stroke
85 0 2983 2174 2 MP stroke
0 37 3332 2153 2 MP stroke
86 0 3289 2153 2 MP stroke
86 0 3289 2190 2 MP stroke
0 36 3638 2165 2 MP stroke
86 0 3595 2165 2 MP stroke
86 0 3595 2201 2 MP stroke
0 33 3944 2173 2 MP stroke
86 0 3901 2173 2 MP stroke
86 0 3901 2206 2 MP stroke
0 30 4250 2180 2 MP stroke
86 0 4207 2180 2 MP stroke
86 0 4207 2210 2 MP stroke
0 31 4556 2187 2 MP stroke
86 0 4513 2187 2 MP stroke
86 0 4513 2218 2 MP stroke
0 28 4862 2198 2 MP stroke
86 0 4819 2198 2 MP stroke
86 0 4819 2226 2 MP stroke
0 25 5168 2202 2 MP stroke
86 0 5125 2202 2 MP stroke
86 0 5125 2227 2 MP stroke
0 25 5474 2207 2 MP stroke
86 0 5431 2207 2 MP stroke
86 0 5431 2232 2 MP stroke
gs 1116 2055 4432 238 rc
1153 2162 mt 1225 2162 L
1189 2126 mt 1189 2198 L
1459 2128 mt 1531 2128 L
1495 2092 mt 1495 2164 L
1765 2129 mt 1837 2129 L
1801 2093 mt 1801 2165 L
2071 2140 mt 2143 2140 L
2107 2104 mt 2107 2176 L
2377 2145 mt 2449 2145 L
2413 2109 mt 2413 2181 L
2684 2143 mt 2756 2143 L
2720 2107 mt 2720 2179 L
2990 2155 mt 3062 2155 L
3026 2119 mt 3026 2191 L
3296 2171 mt 3368 2171 L
3332 2135 mt 3332 2207 L
3602 2183 mt 3674 2183 L
3638 2147 mt 3638 2219 L
3908 2189 mt 3980 2189 L
3944 2153 mt 3944 2225 L
4214 2195 mt 4286 2195 L
4250 2159 mt 4250 2231 L
4520 2202 mt 4592 2202 L
4556 2166 mt 4556 2238 L
4826 2212 mt 4898 2212 L
4862 2176 mt 4862 2248 L
5132 2215 mt 5204 2215 L
5168 2179 mt 5168 2251 L
5438 2219 mt 5510 2219 L
5474 2183 mt 5474 2255 L
1164 2137 mt 1214 2187 L
1214 2137 mt 1164 2187 L
1470 2103 mt 1520 2153 L
1520 2103 mt 1470 2153 L
1776 2104 mt 1826 2154 L
1826 2104 mt 1776 2154 L
2082 2115 mt 2132 2165 L
2132 2115 mt 2082 2165 L
2388 2120 mt 2438 2170 L
2438 2120 mt 2388 2170 L
2695 2118 mt 2745 2168 L
2745 2118 mt 2695 2168 L
3001 2130 mt 3051 2180 L
3051 2130 mt 3001 2180 L
3307 2146 mt 3357 2196 L
3357 2146 mt 3307 2196 L
3613 2158 mt 3663 2208 L
3663 2158 mt 3613 2208 L
3919 2164 mt 3969 2214 L
3969 2164 mt 3919 2214 L
4225 2170 mt 4275 2220 L
4275 2170 mt 4225 2220 L
4531 2177 mt 4581 2227 L
4581 2177 mt 4531 2227 L
4837 2187 mt 4887 2237 L
4887 2187 mt 4837 2237 L
5143 2190 mt 5193 2240 L
5193 2190 mt 5143 2240 L
5449 2194 mt 5499 2244 L
5499 2194 mt 5449 2244 L
gr

c12
15 0 16 1 15 1 15 1 15 0 16 2 15 0 15 1 
16 0 15 1 15 0 16 0 15 1 15 0 15 0 16 0 
15 1 15 -1 16 0 15 0 15 1 16 0 15 1 15 1 
16 1 15 1 15 0 15 1 16 0 15 -1 15 -1 16 0 
15 0 15 0 16 -1 15 0 15 1 15 -1 16 1 15 1 
15 -1 16 0 15 1 15 0 16 0 15 1 15 1 15 0 
16 1 15 0 15 -1 16 1 15 0 15 1 16 -1 15 1 
15 -1 16 -2 15 0 15 1 15 0 16 1 15 0 15 0 
16 1 15 0 15 2 16 0 15 1 15 0 15 2 16 0 
15 0 15 1 16 1 15 1 15 1 16 0 15 0 15 0 
15 1 16 1 15 -1 15 1 16 1 15 -1 15 1 16 0 
15 1 15 0 16 1 15 0 15 1 15 0 16 1 15 0 
15 1 16 1 15 1 15 1 16 -1 15 1 15 1 15 1 
16 0 15 1 15 1 16 0 15 1 15 1 16 2 15 1 
15 2 15 0 16 0 15 1 15 -22 16 1 15 1 15 0 
16 1 15 1 15 1 15 1 16 0 15 2 15 2 16 1 
15 -1 15 0 16 0 15 1 15 0 16 1 15 1 15 1 
15 0 16 1 15 1 15 1 16 1 15 0 15 2 16 0 
15 1 15 2 15 0 16 0 15 1 15 1 16 2 15 0 
15 1 16 1 15 -2 15 0 15 0 16 1 15 -1 15 0 
16 2 15 1 15 3 16 2 15 -1 15 1 16 3 15 1 
15 2 15 2 16 1 15 2 15 0 16 2 15 0 15 0 
16 1 15 2 15 -3 15 1 16 2 15 1 15 1 16 0 
15 3 15 1 16 2 15 1 15 -1 15 -1 16 0 15 -1 
15 3 16 0 15 0 15 0 16 0 15 -1 15 0 16 3 
15 2 15 -1 15 1 16 1 15 3 15 2 16 1 15 1 
15 -3 16 1 15 1 15 2 15 0 16 2 15 -1 15 2 
16 1 15 -16 15 -2 16 3 15 0 15 1 15 0 16 0 
15 1 15 -3 16 -2 15 2 15 3 16 -1 15 -1 15 3 
16 -2 15 -1 15 3 15 0 16 1 15 2 15 0 16 4 
15 2 15 0 16 4 15 5 15 1 15 0 16 5 15 -2 
15 6 16 0 15 -3 15 4 16 -2 15 0 15 3 15 -1 
16 -1 15 2 15 2 16 2 15 -4 15 5 16 1 15 -6 
15 -22 16 7 15 1 15 2 15 7 16 0 15 -49 15 -2 
16 1 15 -3 15 -3 16 2 15 7 15 8 15 6 16 -5 
15 3 15 11 16 -3 15 -1 15 10 16 -9 15 5 15 5 
15 -23 16 -2 15 -14 15 31 16 -8 15 -28 15 8 16 -6 
15 -6 15 44 15 0 899 2328 300 MP stroke
0 65 1189 2314 2 MP stroke
86 0 1146 2314 2 MP stroke
86 0 1146 2379 2 MP stroke
0 120 1495 2241 2 MP stroke
86 0 1452 2241 2 MP stroke
86 0 1452 2361 2 MP stroke
0 99 1801 2278 2 MP stroke
85 0 1759 2278 2 MP stroke
85 0 1759 2377 2 MP stroke
0 73 2107 2300 2 MP stroke
85 0 2065 2300 2 MP stroke
85 0 2065 2373 2 MP stroke
0 64 2413 2304 2 MP stroke
85 0 2371 2304 2 MP stroke
85 0 2371 2368 2 MP stroke
0 56 2720 2321 2 MP stroke
85 0 2677 2321 2 MP stroke
85 0 2677 2377 2 MP stroke
0 49 3026 2346 2 MP stroke
85 0 2983 2346 2 MP stroke
85 0 2983 2395 2 MP stroke
0 47 3332 2357 2 MP stroke
86 0 3289 2357 2 MP stroke
86 0 3289 2404 2 MP stroke
0 43 3638 2373 2 MP stroke
86 0 3595 2373 2 MP stroke
86 0 3595 2416 2 MP stroke
0 65 3944 2356 2 MP stroke
86 0 3901 2356 2 MP stroke
86 0 3901 2421 2 MP stroke
0 60 4250 2369 2 MP stroke
86 0 4207 2369 2 MP stroke
86 0 4207 2429 2 MP stroke
0 57 4556 2382 2 MP stroke
86 0 4513 2382 2 MP stroke
86 0 4513 2439 2 MP stroke
0 54 4862 2385 2 MP stroke
86 0 4819 2385 2 MP stroke
86 0 4819 2439 2 MP stroke
0 51 5168 2391 2 MP stroke
86 0 5125 2391 2 MP stroke
86 0 5125 2442 2 MP stroke
0 50 5474 2400 2 MP stroke
86 0 5431 2400 2 MP stroke
86 0 5431 2450 2 MP stroke
gs 1116 2225 4432 273 rc
0 j
36 47 -36 47 -36 -47 36 -47 1189 2392 5 MP
DP
36 47 -36 47 -36 -47 36 -47 1495 2345 5 MP
DP
36 47 -36 47 -36 -47 36 -47 1801 2372 5 MP
DP
36 47 -36 47 -36 -47 36 -47 2107 2382 5 MP
DP
36 47 -36 47 -36 -47 36 -47 2413 2382 5 MP
DP
36 47 -36 47 -36 -47 36 -47 2720 2395 5 MP
DP
36 47 -36 47 -36 -47 36 -47 3026 2417 5 MP
DP
36 47 -36 47 -36 -47 36 -47 3332 2427 5 MP
DP
36 47 -36 47 -36 -47 36 -47 3638 2442 5 MP
DP
36 47 -36 47 -36 -47 36 -47 3944 2434 5 MP
DP
36 47 -36 47 -36 -47 36 -47 4250 2445 5 MP
DP
36 47 -36 47 -36 -47 36 -47 4556 2456 5 MP
DP
36 47 -36 47 -36 -47 36 -47 4862 2458 5 MP
DP
36 47 -36 47 -36 -47 36 -47 5168 2463 5 MP
DP
36 47 -36 47 -36 -47 36 -47 5474 2471 5 MP
DP
gr

gr

c12
1 sg
0 772 1538 0 0 -772 4658 1221 4 MP
PP
-1538 0 0 772 1538 0 0 -772 4658 1221 5 MP stroke
4 w
DO
SO
6 w
0 sg
4658 1221 mt 6196 1221 L
4658  449 mt 6196  449 L
4658 1221 mt 4658  449 L
6196 1221 mt 6196  449 L
4658 1221 mt 6196 1221 L
4658 1221 mt 4658  449 L
4658 1221 mt 6196 1221 L
4658  449 mt 6196  449 L
4658 1221 mt 4658  449 L
6196 1221 mt 6196  449 L
5125  581 mt 
(random basis) s
gs 4658 449 1539 773 rc
gs 4836 465 147 147 rc
0 j
41 71 -82 0 41 -71 4909 585 4 MP
c8
DP
gr

c8
gr

c8
0 sg
5125  729 mt 
(random embedding) s
gs 4658 449 1539 773 rc
gs 4836 613 147 147 rc
0 j
0 -58 -58 0 0 58 58 0 4880 657 5 MP
c9
DP
gr

c9
gr

c9
0 sg
5125  877 mt 
(subpsace learning) s
gs 4658 449 1539 773 rc
gs 4836 761 147 147 rc
c10
  36   36 4909  834 FO
gr

c10
gr

c10
0 sg
5125 1026 mt 
(additive model) s
gs 4658 449 1539 773 rc
gs 4836 910 147 147 rc
c11
4873  983 mt 4945  983 L
4909  947 mt 4909 1019 L
4884  958 mt 4934 1008 L
4934  958 mt 4884 1008 L
gr

c11
gr

c11
0 sg
5125 1174 mt 
(anova dcop) s
gs 4658 449 1539 773 rc
gs 4836 1058 147 147 rc
0 j
36 47 -36 47 -36 -47 36 -47 4909 1178 5 MP
c12
DP
gr

c12
gr

c12

end %%Color Dict

eplot
%%EndObject

epage
end

showpage

%%Trailer
%%EOF
