%!PS-Adobe-3.0 EPSF-3.0
%%Creator: MATLAB, The MathWorks, Inc. Version 7.12.0.635 (R2011a). Operating System: Linux 3.16.0-4-amd64 #1 SMP Debian 3.16.7-ckt20-1+deb8u3 (2016-01-17) x86_64.
%%Title: /home/jaemin/workspace_java/high_dim_bo/results/branin/simple_regret.eps
%%CreationDate: 04/01/2016  22:18:48
%%DocumentNeededFonts: Helvetica
%%DocumentProcessColors: Cyan Magenta Yellow Black
%%LanguageLevel: 2
%%Pages: 1
%%BoundingBox:    53   199   546   592
%%EndComments

%%BeginProlog
% MathWorks dictionary
/MathWorks 160 dict begin
% definition operators
/bdef {bind def} bind def
/ldef {load def} bind def
/xdef {exch def} bdef
/xstore {exch store} bdef
% operator abbreviations
/c  /clip ldef
/cc /concat ldef
/cp /closepath ldef
/gr /grestore ldef
/gs /gsave ldef
/mt /moveto ldef
/np /newpath ldef
/cm /currentmatrix ldef
/sm /setmatrix ldef
/rm /rmoveto ldef
/rl /rlineto ldef
/s {show newpath} bdef
/sc {setcmykcolor} bdef
/sr /setrgbcolor ldef
/sg /setgray ldef
/w /setlinewidth ldef
/j /setlinejoin ldef
/cap /setlinecap ldef
/rc {rectclip} bdef
/rf {rectfill} bdef
% page state control
/pgsv () def
/bpage {/pgsv save def} bdef
/epage {pgsv restore} bdef
/bplot /gsave ldef
/eplot {stroke grestore} bdef
% orientation switch
/portraitMode 0 def /landscapeMode 1 def /rotateMode 2 def
% coordinate system mappings
/dpi2point 0 def
% font control
/FontSize 0 def
/FMS {/FontSize xstore findfont [FontSize 0 0 FontSize neg 0 0]
  makefont setfont} bdef
/reencode {exch dup where {pop load} {pop StandardEncoding} ifelse
  exch dup 3 1 roll findfont dup length dict begin
  { 1 index /FID ne {def}{pop pop} ifelse } forall
  /Encoding exch def currentdict end definefont pop} bdef
/isroman {findfont /CharStrings get /Agrave known} bdef
/FMSR {3 1 roll 1 index dup isroman {reencode} {pop pop} ifelse
  exch FMS} bdef
/csm {1 dpi2point div -1 dpi2point div scale neg translate
 dup landscapeMode eq {pop -90 rotate}
  {rotateMode eq {90 rotate} if} ifelse} bdef
% line types: solid, dotted, dashed, dotdash
/SO { [] 0 setdash } bdef
/DO { [.5 dpi2point mul 4 dpi2point mul] 0 setdash } bdef
/DA { [6 dpi2point mul] 0 setdash } bdef
/DD { [.5 dpi2point mul 4 dpi2point mul 6 dpi2point mul 4
  dpi2point mul] 0 setdash } bdef
% macros for lines and objects
/L {lineto stroke} bdef
/MP {3 1 roll moveto 1 sub {rlineto} repeat} bdef
/AP {{rlineto} repeat} bdef
/PDlw -1 def
/W {/PDlw currentlinewidth def setlinewidth} def
/PP {closepath eofill} bdef
/DP {closepath stroke} bdef
/MR {4 -2 roll moveto dup  0 exch rlineto exch 0 rlineto
  neg 0 exch rlineto closepath} bdef
/FR {MR stroke} bdef
/PR {MR fill} bdef
/L1i {{currentfile picstr readhexstring pop} image} bdef
/tMatrix matrix def
/MakeOval {newpath tMatrix currentmatrix pop translate scale
0 0 1 0 360 arc tMatrix setmatrix} bdef
/FO {MakeOval stroke} bdef
/PO {MakeOval fill} bdef
/PD {currentlinewidth 2 div 0 360 arc fill
   PDlw -1 eq not {PDlw w /PDlw -1 def} if} def
/FA {newpath tMatrix currentmatrix pop translate scale
  0 0 1 5 -2 roll arc tMatrix setmatrix stroke} bdef
/PA {newpath tMatrix currentmatrix pop	translate 0 0 moveto scale
  0 0 1 5 -2 roll arc closepath tMatrix setmatrix fill} bdef
/FAn {newpath tMatrix currentmatrix pop translate scale
  0 0 1 5 -2 roll arcn tMatrix setmatrix stroke} bdef
/PAn {newpath tMatrix currentmatrix pop translate 0 0 moveto scale
  0 0 1 5 -2 roll arcn closepath tMatrix setmatrix fill} bdef
/vradius 0 def /hradius 0 def /lry 0 def
/lrx 0 def /uly 0 def /ulx 0 def /rad 0 def
/MRR {/vradius xdef /hradius xdef /lry xdef /lrx xdef /uly xdef
  /ulx xdef newpath tMatrix currentmatrix pop ulx hradius add uly
  vradius add translate hradius vradius scale 0 0 1 180 270 arc 
  tMatrix setmatrix lrx hradius sub uly vradius add translate
  hradius vradius scale 0 0 1 270 360 arc tMatrix setmatrix
  lrx hradius sub lry vradius sub translate hradius vradius scale
  0 0 1 0 90 arc tMatrix setmatrix ulx hradius add lry vradius sub
  translate hradius vradius scale 0 0 1 90 180 arc tMatrix setmatrix
  closepath} bdef
/FRR {MRR stroke } bdef
/PRR {MRR fill } bdef
/MlrRR {/lry xdef /lrx xdef /uly xdef /ulx xdef /rad lry uly sub 2 div def
  newpath tMatrix currentmatrix pop ulx rad add uly rad add translate
  rad rad scale 0 0 1 90 270 arc tMatrix setmatrix lrx rad sub lry rad
  sub translate rad rad scale 0 0 1 270 90 arc tMatrix setmatrix
  closepath} bdef
/FlrRR {MlrRR stroke } bdef
/PlrRR {MlrRR fill } bdef
/MtbRR {/lry xdef /lrx xdef /uly xdef /ulx xdef /rad lrx ulx sub 2 div def
  newpath tMatrix currentmatrix pop ulx rad add uly rad add translate
  rad rad scale 0 0 1 180 360 arc tMatrix setmatrix lrx rad sub lry rad
  sub translate rad rad scale 0 0 1 0 180 arc tMatrix setmatrix
  closepath} bdef
/FtbRR {MtbRR stroke } bdef
/PtbRR {MtbRR fill } bdef
/stri 6 array def /dtri 6 array def
/smat 6 array def /dmat 6 array def
/tmat1 6 array def /tmat2 6 array def /dif 3 array def
/asub {/ind2 exch def /ind1 exch def dup dup
  ind1 get exch ind2 get sub exch } bdef
/tri_to_matrix {
  2 0 asub 3 1 asub 4 0 asub 5 1 asub
  dup 0 get exch 1 get 7 -1 roll astore } bdef
/compute_transform {
  dmat dtri tri_to_matrix tmat1 invertmatrix 
  smat stri tri_to_matrix tmat2 concatmatrix } bdef
/ds {stri astore pop} bdef
/dt {dtri astore pop} bdef
/db {2 copy /cols xdef /rows xdef mul dup 3 mul string
  currentfile 
  3 index 0 eq {/ASCIIHexDecode filter}
  {/ASCII85Decode filter 3 index 2 eq {/RunLengthDecode filter} if }
  ifelse exch readstring pop
  dup 0 3 index getinterval /rbmap xdef
  dup 2 index dup getinterval /gbmap xdef
  1 index dup 2 mul exch getinterval /bbmap xdef pop pop}bdef
/it {gs np dtri aload pop moveto lineto lineto cp c
  cols rows 8 compute_transform 
  rbmap gbmap bbmap true 3 colorimage gr}bdef
/il {newpath moveto lineto stroke}bdef
currentdict end def
%%EndProlog

%%BeginSetup
MathWorks begin

0 cap

end
%%EndSetup

%%Page: 1 1
%%BeginPageSetup
%%PageBoundingBox:    53   199   546   592
MathWorks begin
bpage
%%EndPageSetup

%%BeginObject: obj1
bplot

/dpi2point 12 def
portraitMode 0216 7344 csm

  422   237  5923  4718 rc
88 dict begin %Colortable dictionary
/c0 { 0.000000 0.000000 0.000000 sr} bdef
/c1 { 1.000000 1.000000 1.000000 sr} bdef
/c2 { 0.900000 0.000000 0.000000 sr} bdef
/c3 { 0.000000 0.820000 0.000000 sr} bdef
/c4 { 0.000000 0.000000 0.800000 sr} bdef
/c5 { 0.910000 0.820000 0.320000 sr} bdef
/c6 { 1.000000 0.260000 0.820000 sr} bdef
/c7 { 0.000000 0.820000 0.820000 sr} bdef
c0
1 j
1 sg
   0    0 6913 5186 rf
6 w
0 4226 5356 0 0 -4226 899 4615 4 MP
PP
-5356 0 0 4226 5356 0 0 -4226 899 4615 5 MP stroke
4 w
DO
SO
6 w
0 sg
 899 4615 mt 6255 4615 L
 899  389 mt 6255  389 L
 899 4615 mt  899  389 L
6255 4615 mt 6255  389 L
 899 4615 mt 6255 4615 L
 899 4615 mt  899  389 L
 899 4615 mt  899 4561 L
 899  389 mt  899  442 L
%%IncludeResource: font Helvetica
/Helvetica /ISOLatin1Encoding 120 FMSR

 866 4760 mt 
(0) s
1664 4615 mt 1664 4561 L
1664  389 mt 1664  442 L
1598 4760 mt 
(50) s
2429 4615 mt 2429 4561 L
2429  389 mt 2429  442 L
2329 4760 mt 
(100) s
3194 4615 mt 3194 4561 L
3194  389 mt 3194  442 L
3094 4760 mt 
(150) s
3959 4615 mt 3959 4561 L
3959  389 mt 3959  442 L
3859 4760 mt 
(200) s
4724 4615 mt 4724 4561 L
4724  389 mt 4724  442 L
4624 4760 mt 
(250) s
5489 4615 mt 5489 4561 L
5489  389 mt 5489  442 L
5389 4760 mt 
(300) s
 899 4615 mt  925 4615 L
6255 4615 mt 6228 4615 L
 899 4615 mt  952 4615 L
6255 4615 mt 6201 4615 L
 640 4659 mt 
(10) s
%%IncludeResource: font Helvetica
/Helvetica /ISOLatin1Encoding 80 FMSR

 773 4585 mt 
(-2) s
 899 4296 mt  925 4296 L
6255 4296 mt 6228 4296 L
 899 4110 mt  925 4110 L
6255 4110 mt 6228 4110 L
 899 3978 mt  925 3978 L
6255 3978 mt 6228 3978 L
 899 3876 mt  925 3876 L
6255 3876 mt 6228 3876 L
 899 3792 mt  925 3792 L
6255 3792 mt 6228 3792 L
 899 3722 mt  925 3722 L
6255 3722 mt 6228 3722 L
 899 3660 mt  925 3660 L
6255 3660 mt 6228 3660 L
 899 3606 mt  925 3606 L
6255 3606 mt 6228 3606 L
 899 3558 mt  925 3558 L
6255 3558 mt 6228 3558 L
 899 3558 mt  952 3558 L
6255 3558 mt 6201 3558 L
%%IncludeResource: font Helvetica
/Helvetica /ISOLatin1Encoding 120 FMSR

 640 3602 mt 
(10) s
%%IncludeResource: font Helvetica
/Helvetica /ISOLatin1Encoding 80 FMSR

 773 3528 mt 
(-1) s
 899 3240 mt  925 3240 L
6255 3240 mt 6228 3240 L
 899 3054 mt  925 3054 L
6255 3054 mt 6228 3054 L
 899 2922 mt  925 2922 L
6255 2922 mt 6228 2922 L
 899 2820 mt  925 2820 L
6255 2820 mt 6228 2820 L
 899 2736 mt  925 2736 L
6255 2736 mt 6228 2736 L
 899 2665 mt  925 2665 L
6255 2665 mt 6228 2665 L
 899 2604 mt  925 2604 L
6255 2604 mt 6228 2604 L
 899 2550 mt  925 2550 L
6255 2550 mt 6228 2550 L
 899 2502 mt  925 2502 L
6255 2502 mt 6228 2502 L
 899 2502 mt  952 2502 L
6255 2502 mt 6201 2502 L
%%IncludeResource: font Helvetica
/Helvetica /ISOLatin1Encoding 120 FMSR

 640 2546 mt 
(10) s
%%IncludeResource: font Helvetica
/Helvetica /ISOLatin1Encoding 80 FMSR

 773 2472 mt 
(0) s
 899 2183 mt  925 2183 L
6255 2183 mt 6228 2183 L
 899 1997 mt  925 1997 L
6255 1997 mt 6228 1997 L
 899 1865 mt  925 1865 L
6255 1865 mt 6228 1865 L
 899 1763 mt  925 1763 L
6255 1763 mt 6228 1763 L
 899 1679 mt  925 1679 L
6255 1679 mt 6228 1679 L
 899 1609 mt  925 1609 L
6255 1609 mt 6228 1609 L
 899 1547 mt  925 1547 L
6255 1547 mt 6228 1547 L
 899 1493 mt  925 1493 L
6255 1493 mt 6228 1493 L
 899 1445 mt  925 1445 L
6255 1445 mt 6228 1445 L
 899 1445 mt  952 1445 L
6255 1445 mt 6201 1445 L
%%IncludeResource: font Helvetica
/Helvetica /ISOLatin1Encoding 120 FMSR

 640 1489 mt 
(10) s
%%IncludeResource: font Helvetica
/Helvetica /ISOLatin1Encoding 80 FMSR

 773 1415 mt 
(1) s
 899 1127 mt  925 1127 L
6255 1127 mt 6228 1127 L
 899  941 mt  925  941 L
6255  941 mt 6228  941 L
 899  809 mt  925  809 L
6255  809 mt 6228  809 L
 899  707 mt  925  707 L
6255  707 mt 6228  707 L
 899  623 mt  925  623 L
6255  623 mt 6228  623 L
 899  552 mt  925  552 L
6255  552 mt 6228  552 L
 899  491 mt  925  491 L
6255  491 mt 6228  491 L
 899  437 mt  925  437 L
6255  437 mt 6228  437 L
 899  389 mt  925  389 L
6255  389 mt 6228  389 L
 899  389 mt  952  389 L
6255  389 mt 6201  389 L
%%IncludeResource: font Helvetica
/Helvetica /ISOLatin1Encoding 120 FMSR

 640  433 mt 
(10) s
%%IncludeResource: font Helvetica
/Helvetica /ISOLatin1Encoding 80 FMSR

 773  359 mt 
(2) s
 899 4615 mt 6255 4615 L
 899  389 mt 6255  389 L
 899 4615 mt  899  389 L
6255 4615 mt 6255  389 L
gs 899 389 5357 4227 rc
gs 1116 1192 4432 147 rc
0 j
41 71 -82 0 41 -71 1189 1312 4 MP
/c8 { 0.000000 1.000000 0.000000 sr} bdef
c8
DP
41 71 -82 0 41 -71 1495 1312 4 MP
DP
41 71 -82 0 41 -71 1801 1312 4 MP
DP
41 71 -82 0 41 -71 2107 1312 4 MP
DP
41 71 -82 0 41 -71 2413 1312 4 MP
DP
41 71 -82 0 41 -71 2720 1312 4 MP
DP
41 71 -82 0 41 -71 3026 1312 4 MP
DP
41 71 -82 0 41 -71 3332 1312 4 MP
DP
41 71 -82 0 41 -71 3638 1312 4 MP
DP
41 71 -82 0 41 -71 3944 1312 4 MP
DP
41 71 -82 0 41 -71 4250 1312 4 MP
DP
41 71 -82 0 41 -71 4556 1312 4 MP
DP
41 71 -82 0 41 -71 4862 1312 4 MP
DP
41 71 -82 0 41 -71 5168 1312 4 MP
DP
41 71 -82 0 41 -71 5474 1312 4 MP
DP
gr

c8
gs 1116 2129 4432 349 rc
0 j
0 -58 -58 0 0 58 58 0 1160 2173 5 MP
/c9 { 1.000000 0.000000 0.000000 sr} bdef
c9
DP
0 -58 -58 0 0 58 58 0 1466 2289 5 MP
DP
0 -58 -58 0 0 58 58 0 1772 2320 5 MP
DP
0 -58 -58 0 0 58 58 0 2078 2321 5 MP
DP
0 -58 -58 0 0 58 58 0 2384 2323 5 MP
DP
0 -58 -58 0 0 58 58 0 2691 2347 5 MP
DP
0 -58 -58 0 0 58 58 0 2997 2347 5 MP
DP
0 -58 -58 0 0 58 58 0 3303 2347 5 MP
DP
0 -58 -58 0 0 58 58 0 3609 2351 5 MP
DP
0 -58 -58 0 0 58 58 0 3915 2353 5 MP
DP
0 -58 -58 0 0 58 58 0 4221 2353 5 MP
DP
0 -58 -58 0 0 58 58 0 4527 2354 5 MP
DP
0 -58 -58 0 0 58 58 0 4833 2354 5 MP
DP
0 -58 -58 0 0 58 58 0 5139 2375 5 MP
DP
0 -58 -58 0 0 58 58 0 5445 2375 5 MP
DP
gr

c9
gs 1116 2246 4432 1985 rc
/c10 { 0.000000 1.000000 1.000000 sr} bdef
c10
  36   36 1189 2319 FO
  36   36 1495 2500 FO
  36   36 1801 2824 FO
  36   36 2107 3286 FO
  36   36 2413 3685 FO
  36   36 2720 3881 FO
  36   36 3026 4031 FO
  36   36 3332 4110 FO
  36   36 3638 4119 FO
  36   36 3944 4123 FO
  36   36 4250 4142 FO
  36   36 4556 4142 FO
  36   36 4862 4153 FO
  36   36 5168 4153 FO
  36   36 5474 4157 FO
gr

c10
gs 1116 1861 4432 1422 rc
/c11 { 0.000000 0.000000 1.000000 sr} bdef
c11
1153 1934 mt 1225 1934 L
1189 1898 mt 1189 1970 L
1459 2254 mt 1531 2254 L
1495 2218 mt 1495 2290 L
1765 2382 mt 1837 2382 L
1801 2346 mt 1801 2418 L
2071 2453 mt 2143 2453 L
2107 2417 mt 2107 2489 L
2377 2545 mt 2449 2545 L
2413 2509 mt 2413 2581 L
2684 2616 mt 2756 2616 L
2720 2580 mt 2720 2652 L
2990 2677 mt 3062 2677 L
3026 2641 mt 3026 2713 L
3296 2770 mt 3368 2770 L
3332 2734 mt 3332 2806 L
3602 2778 mt 3674 2778 L
3638 2742 mt 3638 2814 L
3908 2793 mt 3980 2793 L
3944 2757 mt 3944 2829 L
4214 2839 mt 4286 2839 L
4250 2803 mt 4250 2875 L
4520 2884 mt 4592 2884 L
4556 2848 mt 4556 2920 L
4826 2885 mt 4898 2885 L
4862 2849 mt 4862 2921 L
5132 3196 mt 5204 3196 L
5168 3160 mt 5168 3232 L
5438 3209 mt 5510 3209 L
5474 3173 mt 5474 3245 L
1164 1909 mt 1214 1959 L
1214 1909 mt 1164 1959 L
1470 2229 mt 1520 2279 L
1520 2229 mt 1470 2279 L
1776 2357 mt 1826 2407 L
1826 2357 mt 1776 2407 L
2082 2428 mt 2132 2478 L
2132 2428 mt 2082 2478 L
2388 2520 mt 2438 2570 L
2438 2520 mt 2388 2570 L
2695 2591 mt 2745 2641 L
2745 2591 mt 2695 2641 L
3001 2652 mt 3051 2702 L
3051 2652 mt 3001 2702 L
3307 2745 mt 3357 2795 L
3357 2745 mt 3307 2795 L
3613 2753 mt 3663 2803 L
3663 2753 mt 3613 2803 L
3919 2768 mt 3969 2818 L
3969 2768 mt 3919 2818 L
4225 2814 mt 4275 2864 L
4275 2814 mt 4225 2864 L
4531 2859 mt 4581 2909 L
4581 2859 mt 4531 2909 L
4837 2860 mt 4887 2910 L
4887 2860 mt 4837 2910 L
5143 3171 mt 5193 3221 L
5193 3171 mt 5143 3221 L
5449 3184 mt 5499 3234 L
5499 3184 mt 5449 3234 L
gr

c11
gs 1116 1865 4432 1393 rc
0 j
36 47 -36 47 -36 -47 36 -47 1189 1985 5 MP
/c12 { 1.000000 0.000000 1.000000 sr} bdef
c12
DP
36 47 -36 47 -36 -47 36 -47 1495 2373 5 MP
DP
36 47 -36 47 -36 -47 36 -47 1801 2604 5 MP
DP
36 47 -36 47 -36 -47 36 -47 2107 2626 5 MP
DP
36 47 -36 47 -36 -47 36 -47 2413 2737 5 MP
DP
36 47 -36 47 -36 -47 36 -47 2720 2793 5 MP
DP
36 47 -36 47 -36 -47 36 -47 3026 2845 5 MP
DP
36 47 -36 47 -36 -47 36 -47 3332 2877 5 MP
DP
36 47 -36 47 -36 -47 36 -47 3638 2936 5 MP
DP
36 47 -36 47 -36 -47 36 -47 3944 3030 5 MP
DP
36 47 -36 47 -36 -47 36 -47 4250 3101 5 MP
DP
36 47 -36 47 -36 -47 36 -47 4556 3156 5 MP
DP
36 47 -36 47 -36 -47 36 -47 4862 3186 5 MP
DP
36 47 -36 47 -36 -47 36 -47 5168 3204 5 MP
DP
36 47 -36 47 -36 -47 36 -47 5474 3231 5 MP
DP
gr

c12
gr

c12
0 sg
%%IncludeResource: font Helvetica
/Helvetica /ISOLatin1Encoding 120 FMSR

3330 4903 mt 
(Iterations) s
 558 2883 mt  -90 rotate
(Simple Regret) s
90 rotate
 882 4658 mt 
( ) s
6239  431 mt 
( ) s
gs 899 389 5357 4227 rc
c8
15 0 16 0 15 0 15 0 15 0 16 0 15 0 15 0 
16 0 15 0 15 0 16 0 15 0 15 0 15 0 16 0 
15 0 15 0 16 0 15 0 15 0 16 0 15 0 15 0 
16 0 15 0 15 0 15 0 16 0 15 0 15 0 16 0 
15 0 15 0 16 0 15 0 15 0 15 0 16 0 15 0 
15 0 16 0 15 0 15 0 16 0 15 0 15 0 15 0 
16 0 15 0 15 0 16 0 15 0 15 0 16 0 15 0 
15 0 16 0 15 0 15 0 15 0 16 0 15 0 15 0 
16 0 15 0 15 0 16 0 15 0 15 0 15 0 16 0 
15 0 15 0 16 0 15 0 15 0 16 0 15 0 15 0 
15 0 16 0 15 0 15 0 16 0 15 0 15 0 16 0 
15 0 15 0 16 0 15 0 15 0 15 0 16 0 15 0 
15 0 16 0 15 0 15 0 16 0 15 0 15 0 15 0 
16 0 15 0 15 0 16 0 15 0 15 0 16 0 15 0 
15 0 15 0 16 0 15 0 15 0 16 0 15 0 15 0 
16 0 15 0 15 0 15 0 16 0 15 0 15 0 16 0 
15 0 15 0 16 0 15 0 15 0 16 0 15 0 15 0 
15 0 16 0 15 0 15 0 16 0 15 0 15 0 16 0 
15 0 15 0 15 0 16 0 15 0 15 0 16 0 15 0 
15 0 16 0 15 0 15 0 15 0 16 0 15 0 15 0 
16 0 15 0 15 0 16 0 15 0 15 0 16 0 15 0 
15 0 15 0 16 0 15 0 15 0 16 0 15 0 15 0 
16 0 15 0 15 0 15 0 16 0 15 0 15 0 16 0 
15 0 15 0 16 0 15 0 15 0 15 0 16 0 15 0 
15 0 16 0 15 0 15 0 16 0 15 0 15 0 16 0 
15 0 15 0 15 0 16 0 15 0 15 0 16 0 15 0 
15 0 16 0 15 0 15 0 15 0 16 0 15 0 15 0 
16 0 15 0 15 0 16 0 15 0 15 0 15 0 16 0 
15 0 15 0 16 0 15 0 15 0 16 0 15 0 15 0 
16 0 15 0 15 0 15 0 16 0 15 0 15 0 16 0 
15 0 15 0 16 0 15 0 15 0 15 0 16 0 15 0 
15 0 16 0 15 0 15 0 16 0 15 0 15 0 15 0 
16 0 15 0 15 0 16 0 15 0 15 0 16 0 15 0 
15 0 16 0 15 0 15 0 15 0 16 0 15 0 15 0 
16 0 15 0 15 0 16 0 15 0 15 0 15 0 16 0 
15 0 15 0 16 0 15 0 15 0 16 0 15 0 15 0 
15 0 16 0 15 0 15 0 16 0 15 0 15 0 16 0 
15 2 15 1 15 28 899 1234 300 MP stroke
0 84 1189 1225 2 MP stroke
86 0 1146 1225 2 MP stroke
86 0 1146 1309 2 MP stroke
0 84 1495 1225 2 MP stroke
86 0 1452 1225 2 MP stroke
86 0 1452 1309 2 MP stroke
0 84 1801 1225 2 MP stroke
85 0 1759 1225 2 MP stroke
85 0 1759 1309 2 MP stroke
0 84 2107 1225 2 MP stroke
85 0 2065 1225 2 MP stroke
85 0 2065 1309 2 MP stroke
0 84 2413 1225 2 MP stroke
85 0 2371 1225 2 MP stroke
85 0 2371 1309 2 MP stroke
0 84 2720 1225 2 MP stroke
85 0 2677 1225 2 MP stroke
85 0 2677 1309 2 MP stroke
0 84 3026 1225 2 MP stroke
85 0 2983 1225 2 MP stroke
85 0 2983 1309 2 MP stroke
0 84 3332 1225 2 MP stroke
86 0 3289 1225 2 MP stroke
86 0 3289 1309 2 MP stroke
0 84 3638 1225 2 MP stroke
86 0 3595 1225 2 MP stroke
86 0 3595 1309 2 MP stroke
0 84 3944 1225 2 MP stroke
86 0 3901 1225 2 MP stroke
86 0 3901 1309 2 MP stroke
0 84 4250 1225 2 MP stroke
86 0 4207 1225 2 MP stroke
86 0 4207 1309 2 MP stroke
0 84 4556 1225 2 MP stroke
86 0 4513 1225 2 MP stroke
86 0 4513 1309 2 MP stroke
0 84 4862 1225 2 MP stroke
86 0 4819 1225 2 MP stroke
86 0 4819 1309 2 MP stroke
0 84 5168 1225 2 MP stroke
86 0 5125 1225 2 MP stroke
86 0 5125 1309 2 MP stroke
0 84 5474 1225 2 MP stroke
86 0 5431 1225 2 MP stroke
86 0 5431 1309 2 MP stroke
gs 1116 1192 4432 147 rc
0 j
41 71 -82 0 41 -71 1189 1312 4 MP
DP
41 71 -82 0 41 -71 1495 1312 4 MP
DP
41 71 -82 0 41 -71 1801 1312 4 MP
DP
41 71 -82 0 41 -71 2107 1312 4 MP
DP
41 71 -82 0 41 -71 2413 1312 4 MP
DP
41 71 -82 0 41 -71 2720 1312 4 MP
DP
41 71 -82 0 41 -71 3026 1312 4 MP
DP
41 71 -82 0 41 -71 3332 1312 4 MP
DP
41 71 -82 0 41 -71 3638 1312 4 MP
DP
41 71 -82 0 41 -71 3944 1312 4 MP
DP
41 71 -82 0 41 -71 4250 1312 4 MP
DP
41 71 -82 0 41 -71 4556 1312 4 MP
DP
41 71 -82 0 41 -71 4862 1312 4 MP
DP
41 71 -82 0 41 -71 5168 1312 4 MP
DP
41 71 -82 0 41 -71 5474 1312 4 MP
DP
gr

c9
15 0 16 0 15 0 15 0 15 0 16 0 15 0 15 0 
16 0 15 0 15 0 16 0 15 0 15 0 15 0 16 0 
15 0 15 0 16 0 15 0 15 0 16 0 15 0 15 0 
16 0 15 0 15 0 15 0 16 0 15 0 15 0 16 0 
15 0 15 0 16 0 15 0 15 0 15 0 16 21 15 0 
15 0 16 0 15 0 15 0 16 0 15 0 15 0 15 0 
16 0 15 0 15 0 16 0 15 0 15 0 16 0 15 0 
15 0 16 0 15 0 15 0 15 0 16 0 15 0 15 0 
16 0 15 0 15 0 16 0 15 0 15 0 15 0 16 0 
15 0 15 0 16 0 15 0 15 0 16 1 15 0 15 0 
15 0 16 0 15 0 15 0 16 0 15 0 15 0 16 0 
15 0 15 0 16 0 15 0 15 0 15 0 16 0 15 0 
15 0 16 0 15 0 15 0 16 0 15 0 15 0 15 0 
16 0 15 0 15 0 16 0 15 0 15 0 16 1 15 0 
15 0 15 0 16 0 15 0 15 0 16 0 15 0 15 1 
16 3 15 0 15 0 15 1 16 0 15 0 15 0 16 0 
15 0 15 0 16 0 15 0 15 0 16 0 15 0 15 0 
15 0 16 0 15 0 15 0 16 0 15 0 15 0 16 0 
15 0 15 0 15 0 16 0 15 0 15 0 16 0 15 0 
15 0 16 0 15 0 15 0 15 0 16 0 15 0 15 0 
16 0 15 0 15 0 16 0 15 0 15 0 16 0 15 0 
15 0 15 0 16 0 15 0 15 0 16 0 15 0 15 0 
16 0 15 0 15 0 15 0 16 0 15 0 15 0 16 0 
15 0 15 0 16 0 15 0 15 0 15 0 16 0 15 23 
15 0 16 0 15 1 15 0 16 0 15 0 15 0 16 0 
15 0 15 0 15 0 16 2 15 0 15 0 16 0 15 0 
15 0 16 0 15 0 15 0 15 0 16 0 15 0 15 0 
16 0 15 0 15 0 16 0 15 0 15 0 15 0 16 0 
15 0 15 0 16 0 15 0 15 0 16 0 15 0 15 0 
16 0 15 0 15 0 15 0 16 1 15 0 15 0 16 0 
15 0 15 0 16 0 15 2 15 0 15 1 16 0 15 0 
15 4 16 1 15 0 15 0 16 0 15 1 15 1 15 4 
16 5 15 12 15 0 16 0 15 3 15 0 16 25 15 0 
15 1 16 3 15 0 15 10 15 13 16 0 15 0 15 0 
16 0 15 0 15 11 16 0 15 36 15 1 15 7 16 6 
15 0 15 0 16 4 15 0 15 0 16 13 15 1 15 25 
15 24 16 14 15 91 15 39 16 16 15 17 15 124 16 36 
15 85 15 155 15 140 899 1418 300 MP stroke
0 373 1189 2052 2 MP stroke
86 0 1146 2052 2 MP stroke
86 0 1146 2425 2 MP stroke
0 476 1495 2139 2 MP stroke
86 0 1452 2139 2 MP stroke
86 0 1452 2615 2 MP stroke
0 525 1801 2158 2 MP stroke
85 0 1759 2158 2 MP stroke
85 0 1759 2683 2 MP stroke
0 524 2107 2159 2 MP stroke
85 0 2065 2159 2 MP stroke
85 0 2065 2683 2 MP stroke
0 528 2413 2160 2 MP stroke
85 0 2371 2160 2 MP stroke
85 0 2371 2688 2 MP stroke
0 521 2720 2186 2 MP stroke
85 0 2677 2186 2 MP stroke
85 0 2677 2707 2 MP stroke
0 521 3026 2186 2 MP stroke
85 0 2983 2186 2 MP stroke
85 0 2983 2707 2 MP stroke
0 521 3332 2186 2 MP stroke
86 0 3289 2186 2 MP stroke
86 0 3289 2707 2 MP stroke
0 526 3638 2188 2 MP stroke
86 0 3595 2188 2 MP stroke
86 0 3595 2714 2 MP stroke
0 524 3944 2191 2 MP stroke
86 0 3901 2191 2 MP stroke
86 0 3901 2715 2 MP stroke
0 524 4250 2191 2 MP stroke
86 0 4207 2191 2 MP stroke
86 0 4207 2715 2 MP stroke
0 527 4556 2191 2 MP stroke
86 0 4513 2191 2 MP stroke
86 0 4513 2718 2 MP stroke
0 527 4862 2191 2 MP stroke
86 0 4819 2191 2 MP stroke
86 0 4819 2718 2 MP stroke
0 523 5168 2213 2 MP stroke
86 0 5125 2213 2 MP stroke
86 0 5125 2736 2 MP stroke
0 523 5474 2213 2 MP stroke
86 0 5431 2213 2 MP stroke
86 0 5431 2736 2 MP stroke
gs 1116 2129 4432 349 rc
0 j
0 -58 -58 0 0 58 58 0 1160 2173 5 MP
DP
0 -58 -58 0 0 58 58 0 1466 2289 5 MP
DP
0 -58 -58 0 0 58 58 0 1772 2320 5 MP
DP
0 -58 -58 0 0 58 58 0 2078 2321 5 MP
DP
0 -58 -58 0 0 58 58 0 2384 2323 5 MP
DP
0 -58 -58 0 0 58 58 0 2691 2347 5 MP
DP
0 -58 -58 0 0 58 58 0 2997 2347 5 MP
DP
0 -58 -58 0 0 58 58 0 3303 2347 5 MP
DP
0 -58 -58 0 0 58 58 0 3609 2351 5 MP
DP
0 -58 -58 0 0 58 58 0 3915 2353 5 MP
DP
0 -58 -58 0 0 58 58 0 4221 2353 5 MP
DP
0 -58 -58 0 0 58 58 0 4527 2354 5 MP
DP
0 -58 -58 0 0 58 58 0 4833 2354 5 MP
DP
0 -58 -58 0 0 58 58 0 5139 2375 5 MP
DP
0 -58 -58 0 0 58 58 0 5445 2375 5 MP
DP
gr

c10
15 0 16 0 15 0 15 0 15 0 16 0 15 0 15 0 
16 0 15 0 15 0 16 0 15 0 15 0 15 0 16 4 
15 0 15 0 16 0 15 0 15 0 16 0 15 0 15 0 
16 0 15 0 15 0 15 0 16 0 15 0 15 0 16 0 
15 0 15 0 16 0 15 0 15 0 15 0 16 0 15 0 
15 0 16 0 15 0 15 0 16 0 15 0 15 0 15 0 
16 0 15 0 15 11 16 0 15 0 15 0 16 0 15 0 
15 0 16 0 15 0 15 0 15 0 16 0 15 0 15 0 
16 0 15 0 15 0 16 0 15 0 15 0 15 0 16 0 
15 0 15 0 16 0 15 0 15 0 16 0 15 0 15 0 
15 0 16 0 15 0 15 0 16 0 15 13 15 0 16 0 
15 0 15 0 16 0 15 0 15 0 15 6 16 0 15 0 
15 0 16 0 15 0 15 0 16 0 15 0 15 0 15 0 
16 0 15 0 15 0 16 0 15 4 15 0 16 0 15 0 
15 0 15 0 16 0 15 0 15 0 16 0 15 0 15 0 
16 0 15 0 15 0 15 0 16 0 15 0 15 0 16 0 
15 0 15 0 16 0 15 0 15 0 16 0 15 0 15 3 
15 0 16 6 15 0 15 0 16 61 15 0 15 0 16 0 
15 0 15 0 15 0 16 0 15 0 15 0 16 0 15 12 
15 0 16 0 15 0 15 0 15 0 16 0 15 3 15 3 
16 29 15 2 15 0 16 0 15 5 15 3 16 0 15 0 
15 6 15 0 16 0 15 9 15 4 16 11 15 33 15 27 
16 3 15 0 15 7 15 11 16 0 15 22 15 4 16 0 
15 0 15 4 16 0 15 0 15 2 15 0 16 4 15 0 
15 4 16 0 15 0 15 145 16 11 15 0 15 0 16 0 
15 0 15 0 15 0 16 0 15 2 15 0 16 12 15 1 
15 46 16 0 15 4 15 4 15 6 16 29 15 40 15 6 
16 14 15 223 15 5 16 7 15 22 15 18 15 21 16 25 
15 0 15 0 16 0 15 246 15 2 16 0 15 6 15 10 
16 0 15 0 15 112 15 0 16 0 15 0 15 0 16 0 
15 27 15 0 16 163 15 0 15 0 15 0 16 0 15 0 
15 0 16 0 15 0 15 77 16 31 15 1 15 7 15 0 
16 0 15 7 15 3 16 8 15 19 15 7 16 4 15 4 
15 8 16 2 15 2 15 12 15 1 16 3 15 14 15 4 
16 4 15 0 15 16 16 0 15 11 15 1 15 12 16 57 
15 41 15 12 16 41 15 79 15 53 16 164 15 163 15 105 
15 53 16 36 15 46 15 101 16 33 15 97 15 87 16 64 
15 9 15 0 15 0 899 1135 300 MP stroke
0 527 1189 2127 2 MP stroke
86 0 1146 2127 2 MP stroke
86 0 1146 2654 2 MP stroke
0 626 1495 2286 2 MP stroke
86 0 1452 2286 2 MP stroke
86 0 1452 2912 2 MP stroke
0 938 1801 2562 2 MP stroke
85 0 1759 2562 2 MP stroke
85 0 1759 3500 2 MP stroke
0 485 2107 3105 2 MP stroke
85 0 2065 3105 2 MP stroke
85 0 2065 3590 2 MP stroke
0 386 2413 3532 2 MP stroke
85 0 2371 3532 2 MP stroke
85 0 2371 3918 2 MP stroke
0 219 2720 3784 2 MP stroke
85 0 2677 3784 2 MP stroke
85 0 2677 4003 2 MP stroke
0 207 3026 3939 2 MP stroke
85 0 2983 3939 2 MP stroke
85 0 2983 4146 2 MP stroke
0 228 3332 4010 2 MP stroke
86 0 3289 4010 2 MP stroke
86 0 3289 4238 2 MP stroke
0 235 3638 4016 2 MP stroke
86 0 3595 4016 2 MP stroke
86 0 3595 4251 2 MP stroke
0 239 3944 4019 2 MP stroke
86 0 3901 4019 2 MP stroke
86 0 3901 4258 2 MP stroke
0 239 4250 4038 2 MP stroke
86 0 4207 4038 2 MP stroke
86 0 4207 4277 2 MP stroke
0 239 4556 4038 2 MP stroke
86 0 4513 4038 2 MP stroke
86 0 4513 4277 2 MP stroke
0 241 4862 4048 2 MP stroke
86 0 4819 4048 2 MP stroke
86 0 4819 4289 2 MP stroke
0 241 5168 4048 2 MP stroke
86 0 5125 4048 2 MP stroke
86 0 5125 4289 2 MP stroke
0 243 5474 4052 2 MP stroke
86 0 5431 4052 2 MP stroke
86 0 5431 4295 2 MP stroke
gs 1116 2246 4432 1985 rc
  36   36 1189 2319 FO
  36   36 1495 2500 FO
  36   36 1801 2824 FO
  36   36 2107 3286 FO
  36   36 2413 3685 FO
  36   36 2720 3881 FO
  36   36 3026 4031 FO
  36   36 3332 4110 FO
  36   36 3638 4119 FO
  36   36 3944 4123 FO
  36   36 4250 4142 FO
  36   36 4556 4142 FO
  36   36 4862 4153 FO
  36   36 5168 4153 FO
  36   36 5474 4157 FO
gr

c11
15 0 16 0 15 0 15 0 15 0 16 0 15 0 15 0 
16 0 15 13 15 0 16 0 15 0 15 0 15 0 16 0 
15 0 15 0 16 0 15 0 15 32 16 0 15 0 15 0 
16 0 15 0 15 0 15 0 16 0 15 0 15 0 16 0 
15 64 15 0 16 0 15 84 15 131 15 0 16 0 15 0 
15 0 16 0 15 0 15 0 16 0 15 0 15 0 15 0 
16 0 15 0 15 0 16 0 15 1 15 0 16 0 15 0 
15 0 16 0 15 0 15 0 15 0 16 0 15 0 15 29 
16 0 15 1 15 0 16 0 15 0 15 0 15 0 16 0 
15 0 15 0 16 0 15 15 15 0 16 0 15 0 15 0 
15 0 16 0 15 0 15 0 16 0 15 11 15 0 16 0 
15 0 15 0 16 35 15 0 15 0 15 0 16 0 15 0 
15 0 16 0 15 0 15 0 16 0 15 0 15 0 15 7 
16 0 15 8 15 0 16 0 15 0 15 0 16 0 15 0 
15 0 15 0 16 0 15 0 15 0 16 0 15 0 15 0 
16 0 15 0 15 0 15 0 16 0 15 0 15 4 16 0 
15 3 15 0 16 0 15 0 15 0 16 1 15 0 15 0 
15 0 16 0 15 0 15 0 16 0 15 0 15 0 16 18 
15 74 15 0 15 0 16 0 15 0 15 0 16 0 15 0 
15 0 16 0 15 0 15 0 15 0 16 0 15 0 15 1 
16 0 15 0 15 0 16 0 15 0 15 3 16 0 15 0 
15 0 15 0 16 58 15 0 15 0 16 0 15 0 15 0 
16 0 15 0 15 0 15 0 16 0 15 0 15 0 16 0 
15 28 15 0 16 0 15 0 15 0 15 0 16 0 15 0 
15 0 16 22 15 21 15 0 16 0 15 0 15 0 16 0 
15 0 15 0 15 47 16 0 15 0 15 0 16 0 15 0 
15 0 16 2 15 0 15 0 15 0 16 12 15 2 15 0 
16 0 15 0 15 29 16 0 15 0 15 0 15 0 16 0 
15 0 15 25 16 0 15 7 15 0 16 7 15 0 15 29 
16 0 15 0 15 0 15 0 16 0 15 0 15 0 16 3 
15 0 15 0 16 0 15 0 15 0 15 24 16 0 15 0 
15 1 16 0 15 6 15 0 16 12 15 0 15 0 15 0 
16 0 15 35 15 20 16 30 15 0 15 0 16 0 15 10 
15 106 16 0 15 0 15 0 15 0 16 0 15 0 15 2 
16 0 15 10 15 0 16 82 15 39 15 66 15 5 16 0 
15 0 15 99 16 13 15 36 15 0 16 14 15 13 15 33 
15 0 16 40 15 18 15 0 16 62 15 34 15 33 16 27 
15 24 15 16 15 32 899 1440 300 MP stroke
0 183 1189 1852 2 MP stroke
86 0 1146 1852 2 MP stroke
86 0 1146 2035 2 MP stroke
0 158 1495 2181 2 MP stroke
86 0 1452 2181 2 MP stroke
86 0 1452 2339 2 MP stroke
0 188 1801 2298 2 MP stroke
85 0 1759 2298 2 MP stroke
85 0 1759 2486 2 MP stroke
0 231 2107 2352 2 MP stroke
85 0 2065 2352 2 MP stroke
85 0 2065 2583 2 MP stroke
0 255 2413 2435 2 MP stroke
85 0 2371 2435 2 MP stroke
85 0 2371 2690 2 MP stroke
0 292 2720 2493 2 MP stroke
85 0 2677 2493 2 MP stroke
85 0 2677 2785 2 MP stroke
0 298 3026 2552 2 MP stroke
85 0 2983 2552 2 MP stroke
85 0 2983 2850 2 MP stroke
0 278 3332 2652 2 MP stroke
86 0 3289 2652 2 MP stroke
86 0 3289 2930 2 MP stroke
0 282 3638 2659 2 MP stroke
86 0 3595 2659 2 MP stroke
86 0 3595 2941 2 MP stroke
0 293 3944 2670 2 MP stroke
86 0 3901 2670 2 MP stroke
86 0 3901 2963 2 MP stroke
0 253 4250 2730 2 MP stroke
86 0 4207 2730 2 MP stroke
86 0 4207 2983 2 MP stroke
0 271 4556 2768 2 MP stroke
86 0 4513 2768 2 MP stroke
86 0 4513 3039 2 MP stroke
0 271 4862 2769 2 MP stroke
86 0 4819 2769 2 MP stroke
86 0 4819 3040 2 MP stroke
0 194 5168 3109 2 MP stroke
86 0 5125 3109 2 MP stroke
86 0 5125 3303 2 MP stroke
0 186 5474 3125 2 MP stroke
86 0 5431 3125 2 MP stroke
86 0 5431 3311 2 MP stroke
gs 1116 1861 4432 1422 rc
1153 1934 mt 1225 1934 L
1189 1898 mt 1189 1970 L
1459 2254 mt 1531 2254 L
1495 2218 mt 1495 2290 L
1765 2382 mt 1837 2382 L
1801 2346 mt 1801 2418 L
2071 2453 mt 2143 2453 L
2107 2417 mt 2107 2489 L
2377 2545 mt 2449 2545 L
2413 2509 mt 2413 2581 L
2684 2616 mt 2756 2616 L
2720 2580 mt 2720 2652 L
2990 2677 mt 3062 2677 L
3026 2641 mt 3026 2713 L
3296 2770 mt 3368 2770 L
3332 2734 mt 3332 2806 L
3602 2778 mt 3674 2778 L
3638 2742 mt 3638 2814 L
3908 2793 mt 3980 2793 L
3944 2757 mt 3944 2829 L
4214 2839 mt 4286 2839 L
4250 2803 mt 4250 2875 L
4520 2884 mt 4592 2884 L
4556 2848 mt 4556 2920 L
4826 2885 mt 4898 2885 L
4862 2849 mt 4862 2921 L
5132 3196 mt 5204 3196 L
5168 3160 mt 5168 3232 L
5438 3209 mt 5510 3209 L
5474 3173 mt 5474 3245 L
1164 1909 mt 1214 1959 L
1214 1909 mt 1164 1959 L
1470 2229 mt 1520 2279 L
1520 2229 mt 1470 2279 L
1776 2357 mt 1826 2407 L
1826 2357 mt 1776 2407 L
2082 2428 mt 2132 2478 L
2132 2428 mt 2082 2478 L
2388 2520 mt 2438 2570 L
2438 2520 mt 2388 2570 L
2695 2591 mt 2745 2641 L
2745 2591 mt 2695 2641 L
3001 2652 mt 3051 2702 L
3051 2652 mt 3001 2702 L
3307 2745 mt 3357 2795 L
3357 2745 mt 3307 2795 L
3613 2753 mt 3663 2803 L
3663 2753 mt 3613 2803 L
3919 2768 mt 3969 2818 L
3969 2768 mt 3919 2818 L
4225 2814 mt 4275 2864 L
4275 2814 mt 4225 2864 L
4531 2859 mt 4581 2909 L
4581 2859 mt 4531 2909 L
4837 2860 mt 4887 2910 L
4887 2860 mt 4837 2910 L
5143 3171 mt 5193 3221 L
5193 3171 mt 5143 3221 L
5449 3184 mt 5499 3234 L
5499 3184 mt 5449 3234 L
gr

c12
15 0 16 0 15 0 15 0 15 0 16 0 15 0 15 27 
16 0 15 0 15 0 16 0 15 0 15 0 15 0 16 0 
15 0 15 0 16 0 15 0 15 0 16 0 15 0 15 0 
16 0 15 0 15 0 15 0 16 0 15 0 15 0 16 0 
15 0 15 0 16 0 15 0 15 0 15 18 16 0 15 0 
15 0 16 0 15 0 15 0 16 0 15 0 15 0 15 0 
16 0 15 24 15 6 16 0 15 0 15 0 16 0 15 0 
15 0 16 0 15 0 15 0 15 0 16 37 15 0 15 0 
16 0 15 0 15 0 16 0 15 0 15 0 15 18 16 0 
15 0 15 0 16 0 15 0 15 0 16 0 15 0 15 0 
15 0 16 0 15 1 15 2 16 0 15 0 15 0 16 0 
15 0 15 0 16 0 15 0 15 0 15 0 16 65 15 0 
15 0 16 0 15 0 15 3 16 0 15 0 15 0 15 0 
16 0 15 43 15 0 16 0 15 0 15 28 16 0 15 0 
15 0 15 0 16 0 15 0 15 0 16 0 15 23 15 0 
16 0 15 0 15 0 15 0 16 0 15 0 15 28 16 0 
15 0 15 0 16 0 15 0 15 0 16 0 15 0 15 0 
15 0 16 31 15 0 15 0 16 0 15 0 15 0 16 5 
15 0 15 0 15 0 16 0 15 0 15 0 16 0 15 18 
15 9 16 0 15 0 15 0 15 0 16 0 15 0 15 0 
16 0 15 0 15 0 16 0 15 0 15 28 16 3 15 0 
15 0 15 0 16 0 15 0 15 0 16 21 15 0 15 0 
16 0 15 0 15 0 15 0 16 0 15 24 15 0 16 0 
15 0 15 0 16 0 15 0 15 0 15 0 16 0 15 0 
15 0 16 0 15 0 15 10 16 0 15 0 15 22 16 0 
15 0 15 0 15 0 16 0 15 0 15 39 16 0 15 0 
15 0 16 0 15 9 15 39 15 0 16 0 15 0 15 0 
16 0 15 0 15 2 16 22 15 0 15 0 15 19 16 0 
15 0 15 3 16 0 15 0 15 0 16 0 15 0 15 0 
16 0 15 0 15 0 15 0 16 0 15 0 15 0 16 0 
15 55 15 0 16 0 15 0 15 31 15 0 16 41 15 13 
15 0 16 0 15 12 15 20 16 0 15 0 15 0 15 0 
16 0 15 0 15 59 16 0 15 1 15 19 16 0 15 0 
15 0 16 55 15 22 15 0 15 0 16 33 15 24 15 43 
16 10 15 84 15 46 16 4 15 0 15 18 15 29 16 0 
15 10 15 15 16 25 15 19 15 27 16 36 15 12 15 0 
15 46 16 69 15 24 15 47 16 35 15 51 15 0 16 8 
15 23 15 0 15 58 899 1433 300 MP stroke
0 162 1189 1864 2 MP stroke
86 0 1146 1864 2 MP stroke
86 0 1146 2026 2 MP stroke
0 191 1495 2240 2 MP stroke
86 0 1452 2240 2 MP stroke
86 0 1452 2431 2 MP stroke
0 129 1801 2497 2 MP stroke
85 0 1759 2497 2 MP stroke
85 0 1759 2626 2 MP stroke
0 117 2107 2525 2 MP stroke
85 0 2065 2525 2 MP stroke
85 0 2065 2642 2 MP stroke
0 127 2413 2631 2 MP stroke
85 0 2371 2631 2 MP stroke
85 0 2371 2758 2 MP stroke
0 120 2720 2690 2 MP stroke
85 0 2677 2690 2 MP stroke
85 0 2677 2810 2 MP stroke
0 145 3026 2731 2 MP stroke
85 0 2983 2731 2 MP stroke
85 0 2983 2876 2 MP stroke
0 157 3332 2758 2 MP stroke
86 0 3289 2758 2 MP stroke
86 0 3289 2915 2 MP stroke
0 172 3638 2811 2 MP stroke
86 0 3595 2811 2 MP stroke
86 0 3595 2983 2 MP stroke
0 202 3944 2893 2 MP stroke
86 0 3901 2893 2 MP stroke
86 0 3901 3095 2 MP stroke
0 198 4250 2966 2 MP stroke
86 0 4207 2966 2 MP stroke
86 0 4207 3164 2 MP stroke
0 220 4556 3012 2 MP stroke
86 0 4513 3012 2 MP stroke
86 0 4513 3232 2 MP stroke
0 233 4862 3037 2 MP stroke
86 0 4819 3037 2 MP stroke
86 0 4819 3270 2 MP stroke
0 245 5168 3051 2 MP stroke
86 0 5125 3051 2 MP stroke
86 0 5125 3296 2 MP stroke
0 261 5474 3072 2 MP stroke
86 0 5431 3072 2 MP stroke
86 0 5431 3333 2 MP stroke
gs 1116 1865 4432 1393 rc
0 j
36 47 -36 47 -36 -47 36 -47 1189 1985 5 MP
DP
36 47 -36 47 -36 -47 36 -47 1495 2373 5 MP
DP
36 47 -36 47 -36 -47 36 -47 1801 2604 5 MP
DP
36 47 -36 47 -36 -47 36 -47 2107 2626 5 MP
DP
36 47 -36 47 -36 -47 36 -47 2413 2737 5 MP
DP
36 47 -36 47 -36 -47 36 -47 2720 2793 5 MP
DP
36 47 -36 47 -36 -47 36 -47 3026 2845 5 MP
DP
36 47 -36 47 -36 -47 36 -47 3332 2877 5 MP
DP
36 47 -36 47 -36 -47 36 -47 3638 2936 5 MP
DP
36 47 -36 47 -36 -47 36 -47 3944 3030 5 MP
DP
36 47 -36 47 -36 -47 36 -47 4250 3101 5 MP
DP
36 47 -36 47 -36 -47 36 -47 4556 3156 5 MP
DP
36 47 -36 47 -36 -47 36 -47 4862 3186 5 MP
DP
36 47 -36 47 -36 -47 36 -47 5168 3204 5 MP
DP
36 47 -36 47 -36 -47 36 -47 5474 3231 5 MP
DP
gr

gr

c12
1 sg
0 772 1538 0 0 -772 4658 1221 4 MP
PP
-1538 0 0 772 1538 0 0 -772 4658 1221 5 MP stroke
4 w
DO
SO
6 w
0 sg
4658 1221 mt 6196 1221 L
4658  449 mt 6196  449 L
4658 1221 mt 4658  449 L
6196 1221 mt 6196  449 L
4658 1221 mt 6196 1221 L
4658 1221 mt 4658  449 L
4658 1221 mt 6196 1221 L
4658  449 mt 6196  449 L
4658 1221 mt 4658  449 L
6196 1221 mt 6196  449 L
5125  581 mt 
(random basis) s
gs 4658 449 1539 773 rc
gs 4836 465 147 147 rc
0 j
41 71 -82 0 41 -71 4909 585 4 MP
c8
DP
gr

c8
gr

c8
0 sg
5125  729 mt 
(random embedding) s
gs 4658 449 1539 773 rc
gs 4836 613 147 147 rc
0 j
0 -58 -58 0 0 58 58 0 4880 657 5 MP
c9
DP
gr

c9
gr

c9
0 sg
5125  877 mt 
(subpsace learning) s
gs 4658 449 1539 773 rc
gs 4836 761 147 147 rc
c10
  36   36 4909  834 FO
gr

c10
gr

c10
0 sg
5125 1026 mt 
(additive model) s
gs 4658 449 1539 773 rc
gs 4836 910 147 147 rc
c11
4873  983 mt 4945  983 L
4909  947 mt 4909 1019 L
4884  958 mt 4934 1008 L
4934  958 mt 4884 1008 L
gr

c11
gr

c11
0 sg
5125 1174 mt 
(anova dcop) s
gs 4658 449 1539 773 rc
gs 4836 1058 147 147 rc
0 j
36 47 -36 47 -36 -47 36 -47 4909 1178 5 MP
c12
DP
gr

c12
gr

c12

end %%Color Dict

eplot
%%EndObject

epage
end

showpage

%%Trailer
%%EOF
